%YAML 1.1
%TAG !u! tag:unity3d.com,2011:
--- !u!1 &7135125344278219845
GameObject:
  m_ObjectHideFlags: 0
  m_CorrespondingSourceObject: {fileID: 0}
  m_PrefabInstance: {fileID: 0}
  m_PrefabAsset: {fileID: 0}
  serializedVersion: 6
  m_Component:
  - component: {fileID: 7135125344278219843}
  - component: {fileID: 7135125344278219844}
  - component: {fileID: 7135125344278219842}
  m_Layer: 0
  m_Name: ModelDownloader
  m_TagString: Untagged
  m_Icon: {fileID: 0}
  m_NavMeshLayer: 0
  m_StaticEditorFlags: 0
  m_IsActive: 1
--- !u!4 &7135125344278219843
Transform:
  m_ObjectHideFlags: 0
  m_CorrespondingSourceObject: {fileID: 0}
  m_PrefabInstance: {fileID: 0}
  m_PrefabAsset: {fileID: 0}
  m_GameObject: {fileID: 7135125344278219845}
  m_LocalRotation: {x: 0, y: 0, z: 0, w: 1}
  m_LocalPosition: {x: 0, y: 0, z: 0}
  m_LocalScale: {x: 1, y: 1, z: 1}
  m_Children: []
  m_Father: {fileID: 0}
  m_RootOrder: 0
  m_LocalEulerAnglesHint: {x: 0, y: 0, z: 0}
--- !u!114 &7135125344278219844
MonoBehaviour:
  m_ObjectHideFlags: 0
  m_CorrespondingSourceObject: {fileID: 0}
  m_PrefabInstance: {fileID: 0}
  m_PrefabAsset: {fileID: 0}
  m_GameObject: {fileID: 7135125344278219845}
  m_Enabled: 1
  m_EditorHideFlags: 0
  m_Script: {fileID: 11500000, guid: d42f531ab751188459d8b2fb852b727e, type: 3}
  m_Name: 
  m_EditorClassIdentifier: 
  AutoStart: 1
  AssetURI: https://firebasestorage.googleapis.com/v0/b/wirtualna-rzeczywiscosc.appspot.com/o/bed_1.FBX?alt=media&token=a47cdbcc-6f8c-4a21-8718-e21ac1f82205
  Timeout: 2000
  AssetExtension: .fbx
  WrapperGameObject: {fileID: 7135125344278219845}
  ShowProgress: 1
  Async: 0
--- !u!114 &7135125344278219842
MonoBehaviour:
  m_ObjectHideFlags: 0
  m_CorrespondingSourceObject: {fileID: 0}
  m_PrefabInstance: {fileID: 0}
  m_PrefabAsset: {fileID: 0}
  m_GameObject: {fileID: 7135125344278219845}
  m_Enabled: 1
  m_EditorHideFlags: 0
  m_Script: {fileID: 11500000, guid: cd0514c60e83f5749b017b5ab45c4c58, type: 3}
  m_Name: 
  m_EditorClassIdentifier: 
