# Blender v2.78 (sub 0) OBJ File: 'Cupboard.blend'
# www.blender.org
mtllib Cupboard.mtl
o Cupboard_Cube.001
v 1.000000 0.042845 5.612552
v 1.000000 7.257067 5.612552
v 1.000000 0.042845 -4.196269
v 1.000000 7.257067 -4.196269
v -1.000000 7.257067 -5.952098
v -1.000000 0.042845 -5.952098
v 1.000000 0.042845 -5.952098
v 1.000000 7.257067 -5.952098
v -5.528192 7.257067 -5.952098
v -5.528192 0.042845 -5.952098
v -0.842498 0.042845 5.612552
v -0.843586 0.228793 5.356109
v -0.842498 7.257067 5.612552
v -0.843586 7.071118 5.356109
v -0.843586 0.228793 -4.006760
v -1.226187 0.228793 -4.353228
v -0.842498 0.042845 -4.353771
v -0.842498 7.257067 -4.353771
v -1.226187 7.071118 -4.353228
v -0.843586 7.071118 -4.006760
v -5.282805 7.071118 -4.353228
v -5.528192 7.257067 -4.353771
v -5.282805 0.228793 -4.353228
v -5.528192 0.042845 -4.353771
v -0.843141 0.443471 -4.369067
v -0.843141 6.856440 -4.369067
v 0.772585 0.228793 5.356109
v 0.772585 0.228793 -4.006760
v 0.772585 7.071118 5.356109
v 0.772585 7.071118 -4.006760
v -1.226187 7.071118 -5.718247
v -1.226187 0.228793 -5.718247
v -5.282805 0.228793 -5.718247
v -5.282805 7.071118 -5.718247
v 1.000000 3.704710 5.612552
v 1.000000 3.595200 5.612552
v -1.000000 2.126464 -5.952098
v -1.000000 2.016954 -5.952098
v 1.000000 3.704710 -5.952098
v 1.000000 3.595200 -5.952098
v -5.528192 2.126464 -5.952098
v -5.528192 2.016954 -5.952098
v -0.842498 3.696963 5.612552
v -0.842498 3.704710 5.612552
v -0.843586 3.701888 5.356109
v -0.843586 3.598022 5.356109
v -1.226187 2.123642 -4.353228
v -1.226187 1.876506 -4.353228
v -0.843586 3.598022 -4.006760
v -0.843586 3.701888 -4.006760
v -5.528192 2.126464 -4.353771
v -5.528192 2.016954 -4.353771
v -5.282805 1.876506 -4.353228
v -5.282805 2.123642 -4.353228
v -0.843141 2.023035 -4.369067
v -0.843141 2.120383 -4.369067
v 0.772585 3.701888 5.356109
v 0.772585 3.598022 5.356109
v -1.226187 2.123642 -5.718247
v -1.226187 1.876506 -5.718247
v 0.772585 3.598022 -4.006760
v 0.772585 3.701888 -4.006760
v -5.282805 1.876506 -5.718247
v -5.282805 2.123642 -5.718247
v -5.303370 6.447422 -5.139168
v -1.195640 6.447422 -5.139168
v -5.303370 6.438515 -5.138292
v -1.195640 6.438515 -5.138292
v -5.303370 6.429951 -5.135693
v -1.195640 6.429951 -5.135693
v -5.303370 6.422058 -5.131475
v -1.195640 6.422058 -5.131475
v -5.303370 6.415139 -5.125797
v -1.195640 6.415139 -5.125797
v -5.303370 6.409462 -5.118878
v -1.195640 6.409462 -5.118878
v -5.303370 6.405243 -5.110985
v -1.195640 6.405243 -5.110985
v -5.303370 6.402645 -5.102421
v -1.195640 6.402645 -5.102421
v -5.303370 6.401768 -5.093514
v -1.195640 6.401768 -5.093514
v -5.303370 6.402645 -5.084608
v -1.195640 6.402645 -5.084608
v -5.303370 6.405243 -5.076044
v -1.195640 6.405243 -5.076044
v -5.303370 6.409462 -5.068150
v -1.195640 6.409462 -5.068150
v -5.303370 6.415139 -5.061232
v -1.195640 6.415139 -5.061232
v -5.303370 6.422058 -5.055555
v -1.195640 6.422058 -5.055555
v -5.303370 6.429951 -5.051336
v -1.195640 6.429951 -5.051336
v -5.303370 6.438515 -5.048738
v -1.195640 6.438515 -5.048738
v -5.303370 6.447422 -5.047861
v -1.195640 6.447422 -5.047861
v -5.303370 6.456328 -5.048738
v -1.195640 6.456328 -5.048738
v -5.303370 6.464892 -5.051336
v -1.195640 6.464892 -5.051336
v -5.303370 6.472786 -5.055555
v -1.195640 6.472786 -5.055555
v -5.303370 6.479704 -5.061232
v -1.195640 6.479704 -5.061232
v -5.303370 6.485382 -5.068150
v -1.195640 6.485382 -5.068150
v -5.303370 6.489600 -5.076044
v -1.195640 6.489600 -5.076044
v -5.303370 6.492199 -5.084608
v -1.195640 6.492199 -5.084608
v -5.303370 6.493075 -5.093514
v -1.195640 6.493075 -5.093514
v -5.303370 6.492199 -5.102421
v -1.195640 6.492199 -5.102421
v -5.303370 6.489600 -5.110985
v -1.195640 6.489600 -5.110985
v -5.303370 6.485382 -5.118878
v -1.195640 6.485382 -5.118878
v -5.303370 6.479704 -5.125797
v -1.195640 6.479704 -5.125797
v -5.303370 6.472786 -5.131475
v -1.195640 6.472786 -5.131475
v -5.303370 6.464892 -5.135693
v -1.195640 6.464892 -5.135693
v -5.303370 6.456328 -5.138292
v -1.195640 6.456328 -5.138292
v -0.843249 0.192084 -4.113983
v -0.843249 7.128574 -4.113983
v -0.843249 0.192084 5.513148
v -0.843249 7.128574 5.435347
v -0.843249 3.698913 5.513148
v -0.843249 3.702760 5.435347
v -0.912685 0.042845 -4.353771
v -0.912685 0.042845 5.612552
v -0.912685 3.696963 5.612552
v -0.913437 0.192084 -4.113983
v -0.913437 0.192084 5.513148
v -0.913437 3.698913 5.513148
v -0.843586 0.228793 2.468164
v 0.772585 0.228793 2.468164
v -0.843586 0.228793 2.378083
v 0.772585 0.228793 2.378083
v 0.772585 3.598022 2.373015
v -0.843586 3.598022 2.373015
v 0.772585 3.598022 2.466626
v -0.843586 3.598022 2.466626
v -0.843586 3.199033 5.356109
v 0.772585 3.199033 5.356109
v -0.843586 3.199033 2.466841
v 0.772585 3.199033 2.466841
v -0.843586 3.060537 5.356109
v 0.772585 3.060537 5.356109
v -0.843586 3.060537 2.466866
v 0.772585 3.060537 2.466866
v -0.843586 2.647538 5.356109
v 0.772585 2.647538 5.356109
v -0.843586 2.647538 2.467055
v 0.772585 2.647538 2.467055
v -0.843586 2.522478 5.356109
v 0.772585 2.522478 5.356109
v -0.843586 2.522478 2.467127
v 0.772585 2.522478 2.467127
v -0.843586 2.099917 5.356109
v 0.772585 2.099917 5.356109
v -0.843586 2.099918 2.467318
v 0.772585 2.099918 2.467318
v -0.843586 1.980201 5.356109
v 0.772585 1.980201 5.356109
v -0.843586 1.980201 2.467372
v 0.772585 1.980201 2.467372
v -0.843586 1.548648 -4.006760
v 0.772585 1.548648 -4.006760
v -0.843586 1.548647 2.376098
v 0.772585 1.548647 2.376098
v -0.843586 1.429145 -4.006760
v 0.772585 1.429145 -4.006760
v -0.843586 1.429144 2.376277
v 0.772585 1.429144 2.376277
v -0.843586 0.228793 0.178933
v 0.772585 0.228793 0.178933
v 0.772585 1.429145 0.178933
v -0.843586 1.429145 0.178933
v -0.843586 0.228793 0.302427
v 0.772585 0.228793 0.302427
v 0.772585 1.429145 0.302427
v -0.843586 1.429145 0.302427
v -0.843586 7.071118 2.418634
v 0.772585 7.071118 2.418634
v 0.772585 3.701888 2.418634
v -0.843586 3.701888 2.418634
v 0.772585 3.701888 2.324364
v -0.843586 3.701888 2.324364
v -0.843586 7.071118 2.324364
v 0.772585 7.071118 2.324364
v 0.639163 7.071118 -4.006760
v 0.639163 7.071118 2.324364
v 0.457124 7.071118 -4.006760
v 0.457124 7.071118 2.324364
v 0.463448 6.886851 2.104433
v 0.632840 6.886851 2.104433
v 0.632840 6.886851 -3.786829
v 0.463448 6.886851 -3.786829
v 1.116208 3.595200 -4.196269
v 1.116208 0.042845 -4.196269
v 1.116208 0.042845 5.612552
v 1.116208 7.257067 -4.196269
v 1.116208 7.257067 5.612552
v 1.116208 3.595200 5.612552
v 1.116208 3.595200 -5.952098
v 1.116208 0.042845 -5.952098
v 1.116208 7.257067 -5.952098
v 1.116208 3.704710 -4.196269
v 1.116208 3.704710 5.612552
v 1.116208 3.704710 -5.952098
vn 0.0000 0.0000 1.0000
vn 0.0000 -1.0000 0.0000
vn 0.0000 0.0000 -1.0000
vn 0.0000 1.0000 0.0000
vn -1.0000 0.0000 0.0000
vn 0.0199 0.0382 0.9991
vn 0.0199 -0.0382 0.9991
vn -1.0000 -0.0092 0.0000
vn -1.0000 0.0000 0.0042
vn -1.0000 0.0059 0.0000
vn -1.0000 0.0000 -0.0012
vn -0.0022 0.0000 1.0000
vn 0.0000 -0.0029 1.0000
vn 0.0000 0.0029 1.0000
vn 0.0413 0.0000 0.9991
vn -1.0000 -0.0018 -0.0022
vn -1.0000 0.0017 -0.0022
vn 1.0000 0.0000 0.0000
vn -1.0000 0.0000 0.0021
vn -1.0000 0.0016 0.0022
vn -0.9993 0.0364 0.0054
vn -1.0000 0.0058 0.0000
vn 0.0000 0.9998 0.0196
vn -1.0000 0.0000 0.0076
vn -1.0000 -0.0050 0.0000
vn 0.0000 0.8490 -0.5284
vn 0.0000 -0.0015 -1.0000
vn 0.0000 0.0005 1.0000
vn 0.0000 0.0002 1.0000
vn 0.0000 0.0006 1.0000
vn -0.9994 -0.0343 0.0000
vn 0.0000 -0.7665 -0.6422
vn 0.0000 -0.7665 0.6422
vn 0.9994 -0.0343 0.0000
vn 0.0000 -0.0979 -0.9952
vn 0.0000 -0.2904 -0.9569
vn 0.0000 -0.4713 -0.8820
vn 0.0000 -0.6344 -0.7730
vn 0.0000 -0.7731 -0.6343
vn 0.0000 -0.8819 -0.4715
vn 0.0000 -0.9570 -0.2902
vn 0.0000 -0.9952 -0.0980
vn 0.0000 -0.9952 0.0981
vn 0.0000 -0.9570 0.2902
vn 0.0000 -0.8819 0.4714
vn 0.0000 -0.7730 0.6344
vn 0.0000 -0.6343 0.7731
vn 0.0000 -0.4714 0.8819
vn 0.0000 -0.2903 0.9569
vn 0.0000 -0.0980 0.9952
vn 0.0000 0.0980 0.9952
vn 0.0000 0.2903 0.9569
vn 0.0000 0.4714 0.8819
vn 0.0000 0.6344 0.7730
vn 0.0000 0.7730 0.6345
vn 0.0000 0.8820 0.4713
vn 0.0000 0.9569 0.2904
vn 0.0000 0.9952 0.0979
vn 0.0000 0.9952 -0.0979
vn 0.0000 0.9569 -0.2904
vn 0.0000 0.8820 -0.4713
vn 0.0000 0.7730 -0.6344
vn 0.0000 0.6344 -0.7730
vn 0.0000 0.4713 -0.8820
vn 0.0000 0.2904 -0.9569
vn 0.0000 0.0979 -0.9952
usemtl Black
s off
f 35//1 2//1 13//1 44//1
f 6//2 17//2 24//2 10//2
f 7//3 40//3 211//3 212//3
f 4//4 18//4 13//4 2//4
f 19//2 21//2 34//2 31//2
f 47//5 19//5 31//5 59//5
f 37//3 5//3 8//3 39//3
f 18//4 5//4 9//4 22//4
f 18//4 4//4 8//4 5//4
f 2//1 35//1 215//1 209//1
f 3//2 17//2 6//2 7//2
f 38//3 6//3 10//3 42//3
f 51//5 22//5 9//5 41//5
f 16//6 17//6 25//6
f 19//7 26//7 18//7
f 129//8 131//8 12//8 141//8 143//8 185//8 181//8 15//8
f 134//9 132//9 14//9 45//9
f 132//10 130//10 20//10 195//10 189//10 14//10
f 55//11 25//11 15//11 177//11 173//11 49//11
f 52//12 24//12 23//12 53//12
f 16//13 23//13 24//13 17//13
f 18//14 22//14 21//14 19//14
f 17//2 3//2 1//2 11//2
f 48//15 16//15 25//15 55//15
f 17//16 129//16 15//16 25//16
f 20//17 130//17 18//17 26//17
f 57//5 29//5 190//5 196//5 30//5 62//5 193//5 191//5
f 59//1 31//1 34//1 64//1
f 53//18 23//18 33//18 63//18
f 141//4 12//4 27//4 142//4
f 177//1 15//1 28//1 178//1
f 198//2 197//2 30//2 196//2
f 45//3 14//3 29//3 57//3
f 23//4 16//4 32//4 33//4
f 149//3 46//3 58//3 150//3
f 46//3 45//3 57//3 58//3
f 20//1 50//1 62//1 30//1 197//1 199//1
f 50//1 49//1 61//1 62//1
f 21//18 54//18 64//18 34//18
f 54//18 53//18 63//18 64//18
f 32//1 60//1 63//1 33//1
f 60//1 59//1 64//1 63//1
f 27//5 170//5 166//5 162//5 158//5 154//5 150//5 58//5 147//5 145//5 61//5 174//5 178//5 28//5 182//5 186//5 144//5 142//5
f 58//5 57//5 191//5 193//5 62//5 61//5 145//5 147//5
f 19//15 47//15 56//15 26//15
f 47//15 48//15 55//15 56//15
f 22//12 51//12 54//12 21//12
f 51//12 52//12 53//12 54//12
f 26//11 56//11 50//11 20//11
f 56//11 55//11 49//11 50//11
f 131//19 133//19 46//19 149//19 153//19 157//19 161//19 165//19 169//19 12//19
f 133//20 134//20 45//20 46//20
f 24//5 52//5 42//5 10//5
f 52//5 51//5 41//5 42//5
f 5//3 37//3 41//3 9//3
f 37//3 38//3 42//3 41//3
f 36//1 1//1 207//1 210//1
f 8//4 4//4 208//4 213//4
f 6//3 38//3 40//3 7//3
f 38//3 37//3 39//3 40//3
f 16//5 48//5 60//5 32//5
f 48//5 47//5 59//5 60//5
f 4//4 2//4 209//4 208//4
f 40//3 39//3 216//3 211//3
f 1//1 36//1 43//1 11//1
f 36//1 35//1 44//1 43//1
f 48//2 53//2 63//2 60//2
f 47//2 54//2 64//2 59//2
f 48//1 47//1 54//1 53//1
f 146//2 49//2 61//2 145//2
f 194//4 193//4 62//4 50//4
f 49//5 146//5 148//5 46//5 45//5 192//5 194//5 50//5
f 43//21 44//21 134//21 133//21
f 11//1 43//1 137//1 136//1
f 13//22 18//22 130//22 132//22
f 44//9 13//9 132//9 134//9
f 43//23 133//23 140//23 137//23
f 136//24 137//24 140//24 139//24
f 135//25 136//25 139//25 138//25
f 129//26 17//26 135//26 138//26
f 17//2 11//2 136//2 135//2
f 133//3 131//3 139//3 140//3
f 131//4 129//4 138//4 139//4
f 143//4 141//4 142//4 144//4
f 185//4 143//4 144//4 186//4
f 148//2 146//2 145//2 147//2
f 46//2 148//2 147//2 58//2
f 180//27 144//27 143//27 179//27
f 172//28 171//28 141//28 142//28
f 141//5 171//5 167//5 163//5 159//5 155//5 151//5 148//5 146//5 175//5 179//5 143//5
f 147//28 148//28 151//28 152//28
f 153//3 149//3 150//3 154//3
f 152//29 151//29 155//29 156//29
f 157//3 153//3 154//3 158//3
f 156//2 154//2 153//2 155//2
f 152//2 150//2 149//2 151//2
f 153//5 149//5 151//5 155//5
f 156//28 155//28 159//28 160//28
f 161//3 157//3 158//3 162//3
f 160//30 159//30 163//30 164//30
f 165//3 161//3 162//3 166//3
f 164//2 162//2 161//2 163//2
f 160//2 158//2 157//2 159//2
f 157//5 159//5 163//5 161//5
f 164//28 163//28 167//28 168//28
f 169//3 165//3 166//3 170//3
f 168//28 167//28 171//28 172//28
f 12//3 169//3 170//3 27//3
f 172//2 170//2 169//2 171//2
f 168//2 166//2 165//2 167//2
f 165//5 167//5 171//5 169//5
f 145//27 176//27 175//27 146//27
f 49//1 173//1 174//1 61//1
f 176//27 180//27 179//27 175//27
f 173//1 177//1 178//1 174//1
f 183//2 184//2 177//2 178//2
f 175//4 176//4 174//4 173//4
f 177//5 184//5 188//5 179//5 175//5 173//5
f 187//4 183//4 184//4 188//4
f 15//4 181//4 182//4 28//4
f 180//2 179//2 188//2 187//2
f 181//4 185//4 186//4 182//4
f 187//1 188//1 185//1 186//1
f 183//3 182//3 181//3 184//3
f 185//5 188//5 184//5 181//5
f 45//4 57//4 191//4 192//4
f 14//2 189//2 190//2 29//2
f 189//2 195//2 200//2 198//2 196//2 190//2
f 192//2 194//2 193//2 191//2
f 195//3 200//3 198//3 196//3 193//3 194//3
f 191//1 190//1 189//1 192//1
f 194//5 192//5 189//5 195//5
f 200//31 199//31 204//31 201//31
f 195//2 20//2 199//2 200//2
f 201//2 204//2 203//2 202//2
f 199//32 197//32 203//32 204//32
f 198//33 200//33 201//33 202//33
f 197//34 198//34 202//34 203//34
f 214//18 208//18 209//18 215//18
f 205//18 206//18 212//18 211//18
f 208//18 214//18 216//18 213//18
f 214//18 205//18 211//18 216//18
f 206//18 205//18 210//18 207//18
f 205//18 214//18 215//18 210//18
f 39//3 8//3 213//3 216//3
f 1//2 3//2 206//2 207//2
f 35//1 36//1 210//1 215//1
f 3//2 7//2 212//2 206//2
usemtl Metal.001
f 65//35 66//35 68//35 67//35
f 67//36 68//36 70//36 69//36
f 69//37 70//37 72//37 71//37
f 71//38 72//38 74//38 73//38
f 73//39 74//39 76//39 75//39
f 75//40 76//40 78//40 77//40
f 77//41 78//41 80//41 79//41
f 79//42 80//42 82//42 81//42
f 81//43 82//43 84//43 83//43
f 83//44 84//44 86//44 85//44
f 85//45 86//45 88//45 87//45
f 87//46 88//46 90//46 89//46
f 89//47 90//47 92//47 91//47
f 91//48 92//48 94//48 93//48
f 93//49 94//49 96//49 95//49
f 95//50 96//50 98//50 97//50
f 97//51 98//51 100//51 99//51
f 99//52 100//52 102//52 101//52
f 101//53 102//53 104//53 103//53
f 103//54 104//54 106//54 105//54
f 105//55 106//55 108//55 107//55
f 107//56 108//56 110//56 109//56
f 109//57 110//57 112//57 111//57
f 111//58 112//58 114//58 113//58
f 113//59 114//59 116//59 115//59
f 115//60 116//60 118//60 117//60
f 117//61 118//61 120//61 119//61
f 119//62 120//62 122//62 121//62
f 121//63 122//63 124//63 123//63
f 123//64 124//64 126//64 125//64
f 68//18 66//18 128//18 126//18 124//18 122//18 120//18 118//18 116//18 114//18 112//18 110//18 108//18 106//18 104//18 102//18 100//18 98//18 96//18 94//18 92//18 90//18 88//18 86//18 84//18 82//18 80//18 78//18 76//18 74//18 72//18 70//18
f 125//65 126//65 128//65 127//65
f 127//66 128//66 66//66 65//66
f 65//5 67//5 69//5 71//5 73//5 75//5 77//5 79//5 81//5 83//5 85//5 87//5 89//5 91//5 93//5 95//5 97//5 99//5 101//5 103//5 105//5 107//5 109//5 111//5 113//5 115//5 117//5 119//5 121//5 123//5 125//5 127//5
o BigDrawer.2_Cube.012
v -1.241945 1.868211 -4.340721
v -1.241945 1.211989 -4.340721
v -5.267368 1.868211 -4.340721
v -5.267368 1.211989 -4.340721
v -1.400774 1.868211 -5.791458
v -1.400774 1.211989 -5.791458
v -5.108539 1.868211 -5.791458
v -5.108539 1.211989 -5.791458
v -1.004515 1.868211 -4.340721
v -1.004515 1.101089 -4.340721
v -5.509059 1.868211 -4.340721
v -5.509059 1.101089 -4.340721
v -1.004515 1.868211 -4.292420
v -1.004515 1.101089 -4.292420
v -5.509059 1.868211 -4.292421
v -5.509059 1.101089 -4.292421
v -1.004515 2.021930 -4.292420
v -5.509059 2.021930 -4.292421
v -5.509059 2.021930 -4.341153
v -1.004515 2.021930 -4.341152
v -1.354762 1.868211 -4.340721
v -5.154551 1.868211 -4.340721
v -1.504689 1.868211 -5.714083
v -5.004624 1.868211 -5.714084
v -1.354762 1.203888 -4.340721
v -5.154551 1.203888 -4.340721
v -1.504689 1.203888 -5.714083
v -5.004624 1.203888 -5.714084
v -5.108539 1.191473 -5.791458
v -1.400774 1.191473 -5.791458
v -5.267368 1.191473 -4.340721
v -1.241945 1.191473 -4.340721
v -1.354762 1.183372 -4.340721
v -1.504689 1.183372 -5.714083
v -5.004624 1.183372 -5.714084
v -5.154551 1.183372 -4.340721
v -3.079221 1.448893 -4.248428
v -3.079221 1.522927 -4.248428
v -3.153515 1.448893 -4.295053
v -3.153515 1.522927 -4.295053
v -3.079221 1.448893 -4.295053
v -3.079221 1.522927 -4.295053
v -3.153515 1.448893 -4.210181
v -3.153515 1.522927 -4.210181
v -3.419490 1.448893 -4.248428
v -3.419490 1.522927 -4.248428
v -3.345956 1.448893 -4.210181
v -3.345956 1.522927 -4.210181
v -3.419490 1.448893 -4.301819
v -3.419490 1.522927 -4.301819
v -3.345956 1.522927 -4.301819
v -3.345956 1.448893 -4.301819
v -3.153515 1.448893 -4.268476
v -3.185460 1.448893 -4.248428
v -3.153515 1.448893 -4.228379
v -3.121569 1.448893 -4.248428
v -3.185460 1.522927 -4.248428
v -3.153515 1.522927 -4.268476
v -3.121569 1.522927 -4.248428
v -3.153515 1.522927 -4.228379
v -3.111167 1.448893 -4.210181
v -3.079221 1.448893 -4.230230
v -3.079221 1.522927 -4.230230
v -3.111167 1.522927 -4.210181
v -3.419490 1.448893 -4.230230
v -3.387545 1.448893 -4.210181
v -3.387545 1.522927 -4.210181
v -3.419490 1.522927 -4.230230
v -3.345956 1.522927 -4.268476
v -3.314010 1.522927 -4.248428
v -3.345956 1.522927 -4.228379
v -3.377902 1.522927 -4.248428
v -3.314010 1.448893 -4.248428
v -3.345956 1.448893 -4.268476
v -3.377902 1.448893 -4.248428
v -3.345956 1.448893 -4.228379
vn 0.0000 -1.0000 0.0000
vn -1.0000 0.0000 0.0000
vn 1.0000 0.0000 0.0000
vn -0.0000 0.0000 1.0000
vn 0.0000 1.0000 0.0000
vn 0.0000 0.0000 -1.0000
vn -0.0718 -0.9974 -0.0078
vn 0.0000 -0.9946 -0.1041
vn 0.0718 -0.9974 -0.0078
vn -0.9941 0.0000 -0.1088
vn 0.9941 0.0000 -0.1088
vn 0.0000 0.0028 1.0000
vn 0.9941 0.0000 0.1085
vn -0.9941 0.0000 0.1085
vn -0.5316 0.0000 -0.8470
vn 0.5316 0.0000 0.8470
vn -0.5316 0.0000 0.8470
vn 0.5316 0.0000 -0.8470
usemtl Black
s off
f 228//67 226//67 230//67 232//67
f 227//68 228//68 232//68 231//68
f 226//69 225//69 229//69 230//69
f 230//70 229//70 231//70 232//70
f 231//70 229//70 233//70 234//70
f 234//71 233//71 236//71 235//71
f 231//68 234//68 235//68 227//68
f 225//69 236//69 233//69 229//69
f 241//72 249//72 252//72 242//72
f 252//73 247//73 245//73 251//73
f 251//74 245//74 246//74 250//74
f 248//75 249//75 250//75 246//75
usemtl White.001
f 220//72 218//72 226//72 228//72
f 224//72 223//72 221//72 222//72
f 220//76 219//76 223//76 224//76
f 217//77 218//77 222//77 221//77
f 219//70 227//70 228//70 220//70
f 218//70 226//70 225//70 217//70
f 225//78 236//78 217//78
f 219//78 235//78 227//78
f 223//71 219//71 238//71 240//71
f 217//71 221//71 239//71 237//71
f 240//79 238//79 242//79 244//79
f 237//80 239//80 243//80 241//80
f 236//78 235//78 237//78 217//78
f 235//78 219//78 238//78 237//78
f 220//70 218//70 241//70 237//70 238//70 242//70
f 244//70 243//70 239//70 240//70
f 221//71 223//71 240//71 239//71
f 224//72 222//72 246//72 245//72
f 220//76 224//76 245//76 247//76
f 218//72 248//72 249//72 241//72
f 249//67 252//67 251//67 250//67
f 242//72 252//72 247//72 220//72
f 222//77 218//77 248//77 246//77
usemtl Metal.001
f 264//70 283//70 282//70 263//70
f 253//69 257//69 258//69 254//69
f 254//69 279//69 278//69 253//69
f 253//67 278//67 277//67 259//67 271//67 272//67
f 270//72 289//72 286//72 273//72
f 273//71 286//71 287//71 264//71 260//71 276//71
f 290//69 268//69 267//69 285//69
f 258//71 256//71 274//71 275//71 254//71
f 259//67 263//67 292//67 289//67 270//67 271//67
f 263//67 282//67 281//67 261//67 291//67 292//67
f 288//71 262//71 284//71 283//71 264//71 287//71
f 261//68 281//68 284//68 262//68
f 285//71 267//71 266//71 262//71 288//71
f 259//70 277//70 280//70 260//70
f 260//70 264//70 263//70 259//70
f 276//71 260//71 280//71 279//71 254//71 275//71
f 255//68 269//68 274//68 256//68
f 268//72 265//72 266//72 267//72
f 261//67 265//67 268//67 290//67 291//67
f 262//68 266//68 265//68 261//68
f 269//67 272//67 271//67 270//67
f 273//71 276//71 275//71 274//71
f 285//71 288//71 287//71 286//71
f 289//67 292//67 291//67 290//67
f 269//81 270//81 273//81 274//81
f 279//82 280//82 277//82 278//82
f 281//83 282//83 283//83 284//83
f 285//84 286//84 289//84 290//84
f 253//67 272//67 269//67 255//67 257//67
o BigDrawer.1_Cube.008
v -0.860883 1.263678 5.345294
v -0.860883 0.299763 5.345294
v -0.860883 1.263678 2.510019
v -0.860883 0.299763 2.510019
v 0.589854 1.263678 5.233423
v 0.589854 0.299763 5.233423
v 0.589854 1.263678 2.621889
v 0.589854 0.299763 2.621889
v -0.860883 1.263678 5.512525
v -0.860883 0.136864 5.512525
v -0.860883 1.263678 2.365545
v -0.860883 0.136864 2.365545
v -0.909183 1.263678 5.512525
v -0.909183 0.136864 5.512525
v -0.909183 1.263678 2.365545
v -0.909183 0.136864 2.365545
v -0.909183 1.489473 5.512525
v -0.909183 1.489473 2.365545
v -0.860452 1.489473 2.365545
v -0.860452 1.489473 5.512525
v -0.860883 1.263678 5.265832
v -0.860883 1.263678 2.589481
v 0.512479 1.263678 5.160232
v 0.512479 1.263678 2.695081
v -0.860883 0.287863 5.265832
v -0.860883 0.287863 2.589481
v 0.512479 0.287863 5.160232
v 0.512479 0.287863 2.695081
v 0.589854 0.269627 2.621889
v 0.589854 0.269627 5.233423
v -0.860883 0.269627 2.510019
v -0.860883 0.269627 5.345294
v -0.860883 0.257728 5.265832
v 0.512479 0.257728 5.160232
v 0.512479 0.257728 2.695081
v -0.860883 0.257728 2.589481
v -0.953176 0.647748 4.051223
v -0.953176 0.756495 4.051223
v -0.906551 0.647748 3.998895
v -0.906551 0.756495 3.998895
v -0.906551 0.647748 4.051223
v -0.906551 0.756495 4.051223
v -0.991423 0.647748 3.998895
v -0.991423 0.756495 3.998895
v -0.953176 0.647748 3.811557
v -0.953176 0.756495 3.811557
v -0.991423 0.647748 3.863350
v -0.991423 0.756495 3.863350
v -0.899785 0.647748 3.811557
v -0.899785 0.756495 3.811557
v -0.899785 0.756495 3.863350
v -0.899785 0.647748 3.863350
v -0.933128 0.647748 3.998895
v -0.953176 0.647748 3.976394
v -0.973225 0.647748 3.998895
v -0.953176 0.647748 4.021396
v -0.953176 0.756495 3.976394
v -0.933128 0.756495 3.998895
v -0.953176 0.756495 4.021396
v -0.973225 0.756495 3.998895
v -0.991423 0.647748 4.028722
v -0.971374 0.647748 4.051223
v -0.971374 0.756495 4.051223
v -0.991423 0.756495 4.028722
v -0.971374 0.647748 3.811557
v -0.991423 0.647748 3.834058
v -0.991423 0.756495 3.834058
v -0.971374 0.756495 3.811557
v -0.933128 0.756495 3.863350
v -0.953176 0.756495 3.885851
v -0.973225 0.756495 3.863350
v -0.953176 0.756495 3.840850
v -0.953176 0.647748 3.885851
v -0.933128 0.647748 3.863350
v -0.953176 0.647748 3.840850
v -0.973225 0.647748 3.863350
vn -0.0000 -1.0000 0.0000
vn 0.0000 0.0000 -1.0000
vn 0.0000 0.0000 1.0000
vn -1.0000 0.0000 0.0000
vn 0.0000 1.0000 0.0000
vn 1.0000 0.0000 0.0000
vn 0.0114 -0.9889 -0.1484
vn 0.1520 -0.9884 0.0000
vn 0.0114 -0.9889 0.1484
vn 0.0769 -0.0000 -0.9970
vn 0.0769 -0.0000 0.9970
vn -1.0000 0.0019 0.0000
vn -0.0767 0.0000 0.9971
vn -0.0767 0.0000 -0.9971
vn 0.7466 0.0000 -0.6653
vn -0.7466 0.0000 0.6653
vn -0.7466 0.0000 -0.6653
vn 0.7466 0.0000 0.6653
usemtl Black
s off
f 304//85 302//85 306//85 308//85
f 303//86 304//86 308//86 307//86
f 302//87 301//87 305//87 306//87
f 306//88 305//88 307//88 308//88
f 307//88 305//88 309//88 310//88
f 310//89 309//89 312//89 311//89
f 307//86 310//86 311//86 303//86
f 301//87 312//87 309//87 305//87
f 317//90 325//90 328//90 318//90
f 328//91 323//91 321//91 327//91
f 327//92 321//92 322//92 326//92
f 324//93 325//93 326//93 322//93
usemtl White.001
f 296//90 294//90 302//90 304//90
f 300//90 299//90 297//90 298//90
f 296//94 295//94 299//94 300//94
f 293//95 294//95 298//95 297//95
f 295//88 303//88 304//88 296//88
f 294//88 302//88 301//88 293//88
f 301//96 312//96 293//96
f 295//96 311//96 303//96
f 299//89 295//89 314//89 316//89
f 293//89 297//89 315//89 313//89
f 316//97 314//97 318//97 320//97
f 313//98 315//98 319//98 317//98
f 312//96 311//96 313//96 293//96
f 311//96 295//96 314//96 313//96
f 296//88 294//88 317//88 313//88 314//88 318//88
f 320//88 319//88 315//88 316//88
f 297//89 299//89 316//89 315//89
f 300//90 298//90 322//90 321//90
f 296//94 300//94 321//94 323//94
f 294//90 324//90 325//90 317//90
f 325//85 328//85 327//85 326//85
f 318//90 328//90 323//90 296//90
f 298//95 294//95 324//95 322//95
usemtl Metal.001
f 340//88 359//88 358//88 339//88
f 329//87 333//87 334//87 330//87
f 330//87 355//87 354//87 329//87
f 329//85 354//85 353//85 335//85 347//85 348//85
f 346//90 365//90 362//90 349//90
f 349//89 362//89 363//89 340//89 336//89 352//89
f 366//87 344//87 343//87 361//87
f 334//89 332//89 350//89 351//89 330//89
f 335//85 339//85 368//85 365//85 346//85 347//85
f 339//85 358//85 357//85 337//85 367//85 368//85
f 364//89 338//89 360//89 359//89 340//89 363//89
f 337//86 357//86 360//86 338//86
f 361//89 343//89 342//89 338//89 364//89
f 335//88 353//88 356//88 336//88
f 336//88 340//88 339//88 335//88
f 352//89 336//89 356//89 355//89 330//89 351//89
f 331//86 345//86 350//86 332//86
f 344//90 341//90 342//90 343//90
f 337//85 341//85 344//85 366//85 367//85
f 338//86 342//86 341//86 337//86
f 345//85 348//85 347//85 346//85
f 349//89 352//89 351//89 350//89
f 361//89 364//89 363//89 362//89
f 365//85 368//85 367//85 366//85
f 345//99 346//99 349//99 350//99
f 355//100 356//100 353//100 354//100
f 357//101 358//101 359//101 360//101
f 361//102 362//102 365//102 366//102
f 329//85 348//85 345//85 331//85 333//85
o BigDrawer.3_Cube.013
v -1.241945 0.934146 -4.340721
v -1.241945 0.277924 -4.340721
v -5.267368 0.934146 -4.340721
v -5.267368 0.277924 -4.340721
v -1.400774 0.934146 -5.791458
v -1.400774 0.277924 -5.791458
v -5.108539 0.934146 -5.791458
v -5.108539 0.277924 -5.791458
v -1.004515 0.934146 -4.340721
v -1.004515 0.057307 -4.340721
v -5.509059 0.934146 -4.340721
v -5.509059 0.057307 -4.340721
v -1.004515 0.934146 -4.292420
v -1.004515 0.057307 -4.292420
v -5.509059 0.934146 -4.292421
v -5.509059 0.057307 -4.292421
v -1.004515 1.087865 -4.292420
v -5.509059 1.087865 -4.292421
v -5.509059 1.087865 -4.341153
v -1.004515 1.087865 -4.341152
v -1.354762 0.934146 -4.340721
v -5.154551 0.934146 -4.340721
v -1.504689 0.934146 -5.714083
v -5.004624 0.934146 -5.714084
v -1.354762 0.269823 -4.340721
v -5.154551 0.269823 -4.340721
v -1.504689 0.269823 -5.714083
v -5.004624 0.269823 -5.714084
v -5.108539 0.257408 -5.791458
v -1.400774 0.257408 -5.791458
v -5.267368 0.257408 -4.340721
v -1.241945 0.257408 -4.340721
v -1.354762 0.249307 -4.340721
v -1.504689 0.249307 -5.714083
v -5.004624 0.249307 -5.714084
v -5.154551 0.249307 -4.340721
v -3.079221 0.514828 -4.248428
v -3.079221 0.588862 -4.248428
v -3.153515 0.514828 -4.295053
v -3.153515 0.588862 -4.295053
v -3.079221 0.514828 -4.295053
v -3.079221 0.588862 -4.295053
v -3.153515 0.514828 -4.210181
v -3.153515 0.588862 -4.210181
v -3.419490 0.514828 -4.248428
v -3.419490 0.588862 -4.248428
v -3.345956 0.514828 -4.210181
v -3.345956 0.588862 -4.210181
v -3.419490 0.514828 -4.301819
v -3.419490 0.588862 -4.301819
v -3.345956 0.588862 -4.301819
v -3.345956 0.514828 -4.301819
v -3.153515 0.514828 -4.268476
v -3.185460 0.514828 -4.248428
v -3.153515 0.514828 -4.228379
v -3.121569 0.514828 -4.248428
v -3.185460 0.588862 -4.248428
v -3.153515 0.588862 -4.268476
v -3.121569 0.588862 -4.248428
v -3.153515 0.588862 -4.228379
v -3.111167 0.514828 -4.210181
v -3.079221 0.514828 -4.230230
v -3.079221 0.588862 -4.230230
v -3.111167 0.588862 -4.210181
v -3.419490 0.514828 -4.230230
v -3.387545 0.514828 -4.210181
v -3.387545 0.588862 -4.210181
v -3.419490 0.588862 -4.230230
v -3.345956 0.588862 -4.268476
v -3.314010 0.588862 -4.248428
v -3.345956 0.588862 -4.228379
v -3.377902 0.588862 -4.248428
v -3.314010 0.514828 -4.248428
v -3.345956 0.514828 -4.268476
v -3.377902 0.514828 -4.248428
v -3.345956 0.514828 -4.228379
vn 0.0000 -1.0000 0.0000
vn -1.0000 0.0000 0.0000
vn 1.0000 0.0000 0.0000
vn -0.0000 0.0000 1.0000
vn 0.0000 1.0000 0.0000
vn 0.0000 0.0000 -1.0000
vn -0.0718 -0.9974 -0.0078
vn 0.0000 -0.9946 -0.1041
vn 0.0718 -0.9974 -0.0078
vn -0.9941 0.0000 -0.1088
vn 0.9941 0.0000 -0.1088
vn 0.0000 0.0028 1.0000
vn 0.9941 0.0000 0.1085
vn -0.9941 0.0000 0.1085
vn -0.5316 0.0000 -0.8470
vn 0.5316 0.0000 0.8470
vn -0.5316 0.0000 0.8470
vn 0.5316 0.0000 -0.8470
usemtl Black
s off
f 380//103 378//103 382//103 384//103
f 379//104 380//104 384//104 383//104
f 378//105 377//105 381//105 382//105
f 382//106 381//106 383//106 384//106
f 383//106 381//106 385//106 386//106
f 386//107 385//107 388//107 387//107
f 383//104 386//104 387//104 379//104
f 377//105 388//105 385//105 381//105
f 393//108 401//108 404//108 394//108
f 404//109 399//109 397//109 403//109
f 403//110 397//110 398//110 402//110
f 400//111 401//111 402//111 398//111
usemtl White.001
f 372//108 370//108 378//108 380//108
f 376//108 375//108 373//108 374//108
f 372//112 371//112 375//112 376//112
f 369//113 370//113 374//113 373//113
f 371//106 379//106 380//106 372//106
f 370//106 378//106 377//106 369//106
f 377//114 388//114 369//114
f 371//114 387//114 379//114
f 375//107 371//107 390//107 392//107
f 369//107 373//107 391//107 389//107
f 392//115 390//115 394//115 396//115
f 389//116 391//116 395//116 393//116
f 388//114 387//114 389//114 369//114
f 387//114 371//114 390//114 389//114
f 372//106 370//106 393//106 389//106 390//106 394//106
f 396//106 395//106 391//106 392//106
f 373//107 375//107 392//107 391//107
f 376//108 374//108 398//108 397//108
f 372//112 376//112 397//112 399//112
f 370//108 400//108 401//108 393//108
f 401//103 404//103 403//103 402//103
f 394//108 404//108 399//108 372//108
f 374//113 370//113 400//113 398//113
usemtl Metal.001
f 416//106 435//106 434//106 415//106
f 405//105 409//105 410//105 406//105
f 406//105 431//105 430//105 405//105
f 405//103 430//103 429//103 411//103 423//103 424//103
f 422//108 441//108 438//108 425//108
f 425//107 438//107 439//107 416//107 412//107 428//107
f 442//105 420//105 419//105 437//105
f 410//107 408//107 426//107 427//107 406//107
f 411//103 415//103 444//103 441//103 422//103 423//103
f 415//103 434//103 433//103 413//103 443//103 444//103
f 440//107 414//107 436//107 435//107 416//107 439//107
f 413//104 433//104 436//104 414//104
f 437//107 419//107 418//107 414//107 440//107
f 411//106 429//106 432//106 412//106
f 412//106 416//106 415//106 411//106
f 428//107 412//107 432//107 431//107 406//107 427//107
f 407//104 421//104 426//104 408//104
f 420//108 417//108 418//108 419//108
f 413//103 417//103 420//103 442//103 443//103
f 414//104 418//104 417//104 413//104
f 421//103 424//103 423//103 422//103
f 425//107 428//107 427//107 426//107
f 437//107 440//107 439//107 438//107
f 441//103 444//103 443//103 442//103
f 421//117 422//117 425//117 426//117
f 431//118 432//118 429//118 430//118
f 433//119 434//119 435//119 436//119
f 437//120 438//120 441//120 442//120
f 405//103 424//103 421//103 407//103 409//103
o Drawer.3_Cube.003
v -0.860883 2.505891 5.345294
v -0.860883 2.119502 5.345294
v -0.860883 2.505891 2.510019
v -0.860883 2.119502 2.510019
v 0.589854 2.505891 5.233424
v 0.589854 2.119502 5.233424
v 0.589854 2.505891 2.621889
v 0.589854 2.119502 2.621889
v -0.860883 2.505891 5.512525
v -0.860883 2.054204 5.512525
v -0.860883 2.505891 2.365546
v -0.860883 2.054204 2.365546
v -0.909183 2.505891 5.512525
v -0.909183 2.054204 5.512525
v -0.909183 2.505891 2.365546
v -0.909183 2.054204 2.365546
v -0.909183 2.596402 5.512525
v -0.909183 2.596402 2.365546
v -0.860451 2.596402 2.365546
v -0.860451 2.596402 5.512525
v -0.860883 2.505891 5.265832
v -0.860883 2.505891 2.589481
v 0.512480 2.505891 5.160232
v 0.512480 2.505891 2.695081
v -0.860883 2.114733 5.265832
v -0.860883 2.114733 2.589481
v 0.512479 2.114732 5.160232
v 0.512479 2.114732 2.695081
v 0.589854 2.107422 2.621889
v 0.589854 2.107422 5.233424
v -0.860883 2.107422 2.510019
v -0.860883 2.107422 5.345294
v -0.860883 2.102653 5.265832
v 0.512479 2.102652 5.160232
v 0.512479 2.102652 2.695081
v -0.860883 2.102653 2.589481
v -0.953176 2.258993 4.051223
v -0.953176 2.302585 4.051223
v -0.906550 2.258993 3.998895
v -0.906550 2.302585 3.998895
v -0.906550 2.258993 4.051223
v -0.906550 2.302585 4.051223
v -0.991423 2.258993 3.998895
v -0.991423 2.302585 3.998895
v -0.953176 2.258993 3.811557
v -0.953176 2.302585 3.811557
v -0.991423 2.258993 3.863351
v -0.991423 2.302585 3.863351
v -0.899784 2.258993 3.811557
v -0.899784 2.302585 3.811557
v -0.899784 2.302585 3.863351
v -0.899784 2.258993 3.863351
v -0.933127 2.258993 3.998895
v -0.953176 2.258993 3.976394
v -0.973225 2.258993 3.998895
v -0.953176 2.258993 4.021396
v -0.953176 2.302585 3.976394
v -0.933127 2.302585 3.998895
v -0.953176 2.302585 4.021396
v -0.973225 2.302585 3.998895
v -0.991423 2.258993 4.028723
v -0.971374 2.258993 4.051223
v -0.971374 2.302585 4.051223
v -0.991423 2.302585 4.028723
v -0.971374 2.258993 3.811557
v -0.991423 2.258993 3.834058
v -0.991423 2.302585 3.834058
v -0.971374 2.302585 3.811557
v -0.933127 2.302585 3.863351
v -0.953176 2.302585 3.885851
v -0.973225 2.302585 3.863351
v -0.953176 2.302585 3.840850
v -0.953176 2.258993 3.885851
v -0.933127 2.258993 3.863351
v -0.953176 2.258993 3.840850
v -0.973225 2.258993 3.863351
vn 0.0000 -1.0000 0.0000
vn 0.0000 0.0000 -1.0000
vn 0.0000 0.0000 1.0000
vn -1.0000 0.0000 0.0000
vn 0.0000 1.0000 0.0000
vn 1.0000 0.0000 0.0000
vn 0.0046 -0.9982 -0.0600
vn 0.0615 -0.9981 0.0000
vn 0.0046 -0.9982 0.0600
vn 0.0769 -0.0000 -0.9970
vn 0.0769 -0.0000 0.9970
vn -1.0000 0.0048 0.0000
vn -0.0767 0.0000 0.9971
vn -0.0767 0.0000 -0.9971
vn 0.7466 0.0000 -0.6653
vn -0.7466 0.0000 0.6653
vn -0.7466 0.0000 -0.6653
vn 0.7466 0.0000 0.6653
usemtl Black
s off
f 456//121 454//121 458//121 460//121
f 455//122 456//122 460//122 459//122
f 454//123 453//123 457//123 458//123
f 458//124 457//124 459//124 460//124
f 459//124 457//124 461//124 462//124
f 462//125 461//125 464//125 463//125
f 459//122 462//122 463//122 455//122
f 453//123 464//123 461//123 457//123
f 469//126 477//126 480//126 470//126
f 480//127 475//127 473//127 479//127
f 479//128 473//128 474//128 478//128
f 476//129 477//129 478//129 474//129
usemtl White.001
f 448//126 446//126 454//126 456//126
f 452//126 451//126 449//126 450//126
f 448//130 447//130 451//130 452//130
f 445//131 446//131 450//131 449//131
f 447//124 455//124 456//124 448//124
f 446//124 454//124 453//124 445//124
f 453//132 464//132 445//132
f 447//132 463//132 455//132
f 451//125 447//125 466//125 468//125
f 445//125 449//125 467//125 465//125
f 468//133 466//133 470//133 472//133
f 465//134 467//134 471//134 469//134
f 464//132 463//132 465//132 445//132
f 463//132 447//132 466//132 465//132
f 448//124 446//124 469//124 465//124 466//124 470//124
f 472//124 471//124 467//124 468//124
f 449//125 451//125 468//125 467//125
f 452//126 450//126 474//126 473//126
f 448//130 452//130 473//130 475//130
f 446//126 476//126 477//126 469//126
f 477//121 480//121 479//121 478//121
f 470//126 480//126 475//126 448//126
f 450//131 446//131 476//131 474//131
usemtl Metal.001
f 492//124 511//124 510//124 491//124
f 481//123 485//123 486//123 482//123
f 482//123 507//123 506//123 481//123
f 481//121 506//121 505//121 487//121 499//121 500//121
f 498//126 517//126 514//126 501//126
f 501//125 514//125 515//125 492//125 488//125 504//125
f 518//123 496//123 495//123 513//123
f 486//125 484//125 502//125 503//125 482//125
f 487//121 491//121 520//121 517//121 498//121 499//121
f 491//121 510//121 509//121 489//121 519//121 520//121
f 516//125 490//125 512//125 511//125 492//125 515//125
f 489//122 509//122 512//122 490//122
f 513//125 495//125 494//125 490//125 516//125
f 487//124 505//124 508//124 488//124
f 488//124 492//124 491//124 487//124
f 504//125 488//125 508//125 507//125 482//125 503//125
f 483//122 497//122 502//122 484//122
f 496//126 493//126 494//126 495//126
f 489//121 493//121 496//121 518//121 519//121
f 490//122 494//122 493//122 489//122
f 497//121 500//121 499//121 498//121
f 501//125 504//125 503//125 502//125
f 513//125 516//125 515//125 514//125
f 517//121 520//121 519//121 518//121
f 497//135 498//135 501//135 502//135
f 507//136 508//136 505//136 506//136
f 509//137 510//137 511//137 512//137
f 513//138 514//138 517//138 518//138
f 481//121 500//121 497//121 483//121 485//121
o Drawer.2_Cube.004
v -0.860883 3.055002 5.345294
v -0.860883 2.668614 5.345294
v -0.860883 3.055002 2.510019
v -0.860883 2.668614 2.510019
v 0.589854 3.055002 5.233424
v 0.589854 2.668614 5.233424
v 0.589854 3.055002 2.621889
v 0.589854 2.668614 2.621889
v -0.860883 3.055002 5.512525
v -0.860883 2.603315 5.512525
v -0.860883 3.055002 2.365546
v -0.860883 2.603315 2.365546
v -0.909183 3.055002 5.512525
v -0.909183 2.603315 5.512525
v -0.909183 3.055002 2.365546
v -0.909183 2.603315 2.365546
v -0.909183 3.145513 5.512525
v -0.909183 3.145513 2.365546
v -0.860451 3.145513 2.365546
v -0.860451 3.145513 5.512525
v -0.860883 3.055002 5.265832
v -0.860883 3.055002 2.589481
v 0.512480 3.055002 5.160232
v 0.512480 3.055002 2.695081
v -0.860883 2.663844 5.265832
v -0.860883 2.663844 2.589481
v 0.512479 2.663844 5.160232
v 0.512479 2.663844 2.695081
v 0.589854 2.656534 2.621889
v 0.589854 2.656534 5.233424
v -0.860883 2.656534 2.510019
v -0.860883 2.656534 5.345294
v -0.860883 2.651764 5.265832
v 0.512479 2.651764 5.160232
v 0.512479 2.651764 2.695081
v -0.860883 2.651764 2.589481
v -0.953176 2.808105 4.051223
v -0.953176 2.851696 4.051223
v -0.906550 2.808105 3.998895
v -0.906550 2.851696 3.998895
v -0.906550 2.808105 4.051223
v -0.906550 2.851696 4.051223
v -0.991423 2.808105 3.998895
v -0.991423 2.851696 3.998895
v -0.953176 2.808105 3.811557
v -0.953176 2.851696 3.811557
v -0.991423 2.808105 3.863351
v -0.991423 2.851696 3.863351
v -0.899784 2.808105 3.811557
v -0.899784 2.851696 3.811557
v -0.899784 2.851696 3.863351
v -0.899784 2.808105 3.863351
v -0.933127 2.808105 3.998895
v -0.953176 2.808105 3.976394
v -0.973225 2.808105 3.998895
v -0.953176 2.808105 4.021396
v -0.953176 2.851696 3.976394
v -0.933127 2.851696 3.998895
v -0.953176 2.851696 4.021396
v -0.973225 2.851696 3.998895
v -0.991423 2.808105 4.028723
v -0.971374 2.808105 4.051223
v -0.971374 2.851696 4.051223
v -0.991423 2.851696 4.028723
v -0.971374 2.808105 3.811557
v -0.991423 2.808105 3.834058
v -0.991423 2.851696 3.834058
v -0.971374 2.851696 3.811557
v -0.933127 2.851696 3.863351
v -0.953176 2.851696 3.885851
v -0.973225 2.851696 3.863351
v -0.953176 2.851696 3.840850
v -0.953176 2.808105 3.885851
v -0.933127 2.808105 3.863351
v -0.953176 2.808105 3.840850
v -0.973225 2.808105 3.863351
vn 0.0000 -1.0000 0.0000
vn 0.0000 0.0000 -1.0000
vn 0.0000 0.0000 1.0000
vn -1.0000 0.0000 0.0000
vn 0.0000 1.0000 0.0000
vn 1.0000 0.0000 0.0000
vn 0.0046 -0.9982 -0.0600
vn 0.0615 -0.9981 0.0000
vn 0.0046 -0.9982 0.0600
vn 0.0769 -0.0000 -0.9970
vn 0.0769 -0.0000 0.9970
vn -1.0000 0.0048 0.0000
vn -0.0767 0.0000 0.9971
vn -0.0767 0.0000 -0.9971
vn 0.7466 0.0000 -0.6653
vn -0.7466 0.0000 0.6653
vn -0.7466 0.0000 -0.6653
vn 0.7466 0.0000 0.6653
usemtl Black
s off
f 532//139 530//139 534//139 536//139
f 531//140 532//140 536//140 535//140
f 530//141 529//141 533//141 534//141
f 534//142 533//142 535//142 536//142
f 535//142 533//142 537//142 538//142
f 538//143 537//143 540//143 539//143
f 535//140 538//140 539//140 531//140
f 529//141 540//141 537//141 533//141
f 545//144 553//144 556//144 546//144
f 556//145 551//145 549//145 555//145
f 555//146 549//146 550//146 554//146
f 552//147 553//147 554//147 550//147
usemtl White.001
f 524//144 522//144 530//144 532//144
f 528//144 527//144 525//144 526//144
f 524//148 523//148 527//148 528//148
f 521//149 522//149 526//149 525//149
f 523//142 531//142 532//142 524//142
f 522//142 530//142 529//142 521//142
f 529//150 540//150 521//150
f 523//150 539//150 531//150
f 527//143 523//143 542//143 544//143
f 521//143 525//143 543//143 541//143
f 544//151 542//151 546//151 548//151
f 541//152 543//152 547//152 545//152
f 540//150 539//150 541//150 521//150
f 539//150 523//150 542//150 541//150
f 524//142 522//142 545//142 541//142 542//142 546//142
f 548//142 547//142 543//142 544//142
f 525//143 527//143 544//143 543//143
f 528//144 526//144 550//144 549//144
f 524//148 528//148 549//148 551//148
f 522//144 552//144 553//144 545//144
f 553//139 556//139 555//139 554//139
f 546//144 556//144 551//144 524//144
f 526//149 522//149 552//149 550//149
usemtl Metal.001
f 568//142 587//142 586//142 567//142
f 557//141 561//141 562//141 558//141
f 558//141 583//141 582//141 557//141
f 557//139 582//139 581//139 563//139 575//139 576//139
f 574//144 593//144 590//144 577//144
f 577//143 590//143 591//143 568//143 564//143 580//143
f 594//141 572//141 571//141 589//141
f 562//143 560//143 578//143 579//143 558//143
f 563//139 567//139 596//139 593//139 574//139 575//139
f 567//139 586//139 585//139 565//139 595//139 596//139
f 592//143 566//143 588//143 587//143 568//143 591//143
f 565//140 585//140 588//140 566//140
f 589//143 571//143 570//143 566//143 592//143
f 563//142 581//142 584//142 564//142
f 564//142 568//142 567//142 563//142
f 580//143 564//143 584//143 583//143 558//143 579//143
f 559//140 573//140 578//140 560//140
f 572//144 569//144 570//144 571//144
f 565//139 569//139 572//139 594//139 595//139
f 566//140 570//140 569//140 565//140
f 573//139 576//139 575//139 574//139
f 577//143 580//143 579//143 578//143
f 589//143 592//143 591//143 590//143
f 593//139 596//139 595//139 594//139
f 573//153 574//153 577//153 578//153
f 583//154 584//154 581//154 582//154
f 585//155 586//155 587//155 588//155
f 589//156 590//156 593//156 594//156
f 557//139 576//139 573//139 559//139 561//139
o Drawer.1_Cube.006
v -0.860883 3.598550 5.345294
v -0.860883 3.212161 5.345294
v -0.860883 3.598550 2.510019
v -0.860883 3.212161 2.510019
v 0.589854 3.598549 5.233424
v 0.589854 3.212161 5.233424
v 0.589854 3.598549 2.621889
v 0.589854 3.212161 2.621889
v -0.860883 3.598550 5.512525
v -0.860883 3.146863 5.512525
v -0.860883 3.598550 2.365546
v -0.860883 3.146863 2.365546
v -0.909183 3.598550 5.512525
v -0.909183 3.146863 5.512525
v -0.909183 3.598550 2.365546
v -0.909183 3.146863 2.365546
v -0.909183 3.699434 5.512525
v -0.909183 3.699434 2.365546
v -0.860451 3.699434 2.365546
v -0.860451 3.699434 5.512525
v -0.860883 3.598550 5.265832
v -0.860883 3.598550 2.589481
v 0.512480 3.598549 5.160232
v 0.512480 3.598549 2.695081
v -0.860883 3.207391 5.265832
v -0.860883 3.207391 2.589481
v 0.512479 3.207391 5.160232
v 0.512479 3.207391 2.695081
v 0.589854 3.200081 2.621889
v 0.589854 3.200081 5.233424
v -0.860883 3.200081 2.510019
v -0.860883 3.200081 5.345294
v -0.860883 3.195311 5.265832
v 0.512479 3.195311 5.160232
v 0.512479 3.195311 2.695081
v -0.860883 3.195311 2.589481
v -0.953176 3.351652 4.051223
v -0.953176 3.395244 4.051223
v -0.906550 3.351652 3.998895
v -0.906550 3.395244 3.998895
v -0.906550 3.351652 4.051223
v -0.906550 3.395244 4.051223
v -0.991423 3.351652 3.998895
v -0.991423 3.395244 3.998895
v -0.953176 3.351652 3.811557
v -0.953176 3.395244 3.811557
v -0.991423 3.351652 3.863351
v -0.991423 3.395244 3.863351
v -0.899784 3.351652 3.811557
v -0.899784 3.395244 3.811557
v -0.899784 3.395244 3.863351
v -0.899784 3.351652 3.863351
v -0.933127 3.351652 3.998895
v -0.953176 3.351652 3.976394
v -0.973225 3.351652 3.998895
v -0.953176 3.351652 4.021396
v -0.953176 3.395244 3.976394
v -0.933127 3.395244 3.998895
v -0.953176 3.395244 4.021396
v -0.973225 3.395244 3.998895
v -0.991423 3.351652 4.028723
v -0.971374 3.351652 4.051223
v -0.971374 3.395244 4.051223
v -0.991423 3.395244 4.028723
v -0.971374 3.351652 3.811557
v -0.991423 3.351652 3.834058
v -0.991423 3.395244 3.834058
v -0.971374 3.395244 3.811557
v -0.933127 3.395244 3.863351
v -0.953176 3.395244 3.885851
v -0.973225 3.395244 3.863351
v -0.953176 3.395244 3.840850
v -0.953176 3.351652 3.885851
v -0.933127 3.351652 3.863351
v -0.953176 3.351652 3.840850
v -0.973225 3.351652 3.863351
vn 0.0000 -1.0000 0.0000
vn 0.0000 0.0000 -1.0000
vn 0.0000 0.0000 1.0000
vn -1.0000 0.0000 0.0000
vn 0.0000 1.0000 0.0000
vn 1.0000 0.0000 0.0000
vn 0.0046 -0.9982 -0.0600
vn 0.0615 -0.9981 0.0000
vn 0.0046 -0.9982 0.0600
vn 0.0769 -0.0000 -0.9970
vn 0.0769 -0.0000 0.9970
vn -1.0000 0.0043 0.0000
vn -0.0767 0.0000 0.9971
vn -0.0767 0.0000 -0.9971
vn 0.7466 0.0000 -0.6653
vn -0.7466 0.0000 0.6653
vn -0.7466 0.0000 -0.6653
vn 0.7466 0.0000 0.6653
usemtl Black
s off
f 608//157 606//157 610//157 612//157
f 607//158 608//158 612//158 611//158
f 606//159 605//159 609//159 610//159
f 610//160 609//160 611//160 612//160
f 611//160 609//160 613//160 614//160
f 614//161 613//161 616//161 615//161
f 611//158 614//158 615//158 607//158
f 605//159 616//159 613//159 609//159
f 621//162 629//162 632//162 622//162
f 632//163 627//163 625//163 631//163
f 631//164 625//164 626//164 630//164
f 628//165 629//165 630//165 626//165
usemtl White.001
f 600//162 598//162 606//162 608//162
f 604//162 603//162 601//162 602//162
f 600//166 599//166 603//166 604//166
f 597//167 598//167 602//167 601//167
f 599//160 607//160 608//160 600//160
f 598//160 606//160 605//160 597//160
f 605//168 616//168 597//168
f 599//168 615//168 607//168
f 603//161 599//161 618//161 620//161
f 597//161 601//161 619//161 617//161
f 620//169 618//169 622//169 624//169
f 617//170 619//170 623//170 621//170
f 616//168 615//168 617//168 597//168
f 615//168 599//168 618//168 617//168
f 600//160 598//160 621//160 617//160 618//160 622//160
f 624//160 623//160 619//160 620//160
f 601//161 603//161 620//161 619//161
f 604//162 602//162 626//162 625//162
f 600//166 604//166 625//166 627//166
f 598//162 628//162 629//162 621//162
f 629//157 632//157 631//157 630//157
f 622//162 632//162 627//162 600//162
f 602//167 598//167 628//167 626//167
usemtl Metal.001
f 644//160 663//160 662//160 643//160
f 633//159 637//159 638//159 634//159
f 634//159 659//159 658//159 633//159
f 633//157 658//157 657//157 639//157 651//157 652//157
f 650//162 669//162 666//162 653//162
f 653//161 666//161 667//161 644//161 640//161 656//161
f 670//159 648//159 647//159 665//159
f 638//161 636//161 654//161 655//161 634//161
f 639//157 643//157 672//157 669//157 650//157 651//157
f 643//157 662//157 661//157 641//157 671//157 672//157
f 668//161 642//161 664//161 663//161 644//161 667//161
f 641//158 661//158 664//158 642//158
f 665//161 647//161 646//161 642//161 668//161
f 639//160 657//160 660//160 640//160
f 640//160 644//160 643//160 639//160
f 656//161 640//161 660//161 659//161 634//161 655//161
f 635//158 649//158 654//158 636//158
f 648//162 645//162 646//162 647//162
f 641//157 645//157 648//157 670//157 671//157
f 642//158 646//158 645//158 641//158
f 649//157 652//157 651//157 650//157
f 653//161 656//161 655//161 654//161
f 665//161 668//161 667//161 666//161
f 669//157 672//157 671//157 670//157
f 649//171 650//171 653//171 654//171
f 659//172 660//172 657//172 658//172
f 661//173 662//173 663//173 664//173
f 665//174 666//174 669//174 670//174
f 633//157 652//157 649//157 635//157 637//157
o Door_R_Cube.011
v -1.006369 2.029452 -4.291431
v -1.006369 7.257620 -4.291431
v -1.006369 2.029452 -4.358589
v -1.006369 7.257620 -4.358589
v -3.253045 2.029452 -4.291431
v -3.253045 7.257620 -4.291431
v -3.253045 2.029452 -4.358589
v -3.253045 7.257620 -4.358589
v -3.153813 4.172584 -4.322197
v -3.153813 4.172584 -4.220949
v -3.159675 4.172006 -4.322197
v -3.159675 4.172006 -4.220949
v -3.165312 4.170296 -4.322197
v -3.165312 4.170296 -4.220949
v -3.170506 4.167520 -4.322197
v -3.170506 4.167520 -4.220949
v -3.175060 4.163783 -4.322197
v -3.175060 4.163783 -4.220949
v -3.178796 4.159229 -4.322197
v -3.178796 4.159229 -4.220949
v -3.181573 4.154035 -4.322197
v -3.181573 4.154035 -4.220949
v -3.183283 4.148398 -4.322197
v -3.183283 4.148398 -4.220949
v -3.183860 4.142536 -4.322197
v -3.183860 4.142536 -4.220949
v -3.183283 4.136674 -4.322197
v -3.183283 4.136674 -4.220949
v -3.181573 4.131038 -4.322197
v -3.181573 4.131038 -4.220949
v -3.178796 4.125843 -4.322197
v -3.178796 4.125843 -4.220949
v -3.175060 4.121290 -4.322197
v -3.175060 4.121290 -4.220949
v -3.170506 4.117553 -4.322197
v -3.170506 4.117553 -4.220949
v -3.165312 4.114776 -4.322197
v -3.165312 4.114776 -4.220949
v -3.159675 4.113066 -4.322197
v -3.159675 4.113066 -4.220949
v -3.153813 4.112489 -4.322197
v -3.153813 4.112489 -4.220949
v -3.147951 4.113066 -4.322197
v -3.147951 4.113066 -4.220949
v -3.142315 4.114776 -4.322197
v -3.142315 4.114776 -4.220949
v -3.137120 4.117553 -4.322197
v -3.137120 4.117553 -4.220949
v -3.132566 4.121290 -4.322197
v -3.132566 4.121290 -4.220949
v -3.128830 4.125843 -4.322197
v -3.128830 4.125843 -4.220949
v -3.126053 4.131038 -4.322197
v -3.126053 4.131038 -4.220949
v -3.124343 4.136674 -4.322197
v -3.124343 4.136674 -4.220949
v -3.123766 4.142536 -4.322197
v -3.123766 4.142536 -4.220949
v -3.124343 4.148398 -4.322197
v -3.124343 4.148398 -4.220949
v -3.126053 4.154035 -4.322197
v -3.126053 4.154035 -4.220949
v -3.128830 4.159229 -4.322197
v -3.128830 4.159229 -4.220949
v -3.132566 4.163783 -4.322197
v -3.132566 4.163783 -4.220949
v -3.137120 4.167520 -4.322197
v -3.137120 4.167520 -4.220949
v -3.142315 4.170296 -4.322197
v -3.142315 4.170296 -4.220949
v -3.147951 4.172006 -4.322197
v -3.147951 4.172006 -4.220949
v -3.153813 4.472416 -4.322197
v -3.153813 4.472416 -4.220949
v -3.159675 4.471839 -4.322197
v -3.159675 4.471839 -4.220949
v -3.165312 4.470129 -4.322197
v -3.165312 4.470129 -4.220949
v -3.170506 4.467352 -4.322197
v -3.170506 4.467352 -4.220949
v -3.175060 4.463615 -4.322197
v -3.175060 4.463615 -4.220949
v -3.178796 4.459063 -4.322197
v -3.178796 4.459063 -4.220949
v -3.181573 4.453867 -4.322197
v -3.181573 4.453867 -4.220949
v -3.183283 4.448231 -4.322197
v -3.183283 4.448231 -4.220949
v -3.183860 4.442369 -4.322197
v -3.183860 4.442369 -4.220949
v -3.183283 4.436507 -4.322197
v -3.183283 4.436507 -4.220949
v -3.181573 4.430871 -4.322197
v -3.181573 4.430871 -4.220949
v -3.178796 4.425676 -4.322197
v -3.178796 4.425676 -4.220949
v -3.175060 4.421123 -4.322197
v -3.175060 4.421123 -4.220949
v -3.170506 4.417386 -4.322197
v -3.170506 4.417386 -4.220949
v -3.165312 4.414609 -4.322197
v -3.165312 4.414609 -4.220949
v -3.159675 4.412899 -4.322197
v -3.159675 4.412899 -4.220949
v -3.153813 4.412322 -4.322197
v -3.153813 4.412322 -4.220949
v -3.147951 4.412899 -4.322197
v -3.147951 4.412899 -4.220949
v -3.142315 4.414609 -4.322197
v -3.142315 4.414609 -4.220949
v -3.137120 4.417386 -4.322197
v -3.137120 4.417386 -4.220949
v -3.132566 4.421123 -4.322197
v -3.132566 4.421123 -4.220949
v -3.128830 4.425676 -4.322197
v -3.128830 4.425676 -4.220949
v -3.126053 4.430871 -4.322197
v -3.126053 4.430871 -4.220949
v -3.124343 4.436507 -4.322197
v -3.124343 4.436507 -4.220949
v -3.123766 4.442369 -4.322197
v -3.123766 4.442369 -4.220949
v -3.124343 4.448231 -4.322197
v -3.124343 4.448231 -4.220949
v -3.126053 4.453867 -4.322197
v -3.126053 4.453867 -4.220949
v -3.128830 4.459063 -4.322197
v -3.128830 4.459063 -4.220949
v -3.132566 4.463615 -4.322197
v -3.132566 4.463615 -4.220949
v -3.137120 4.467352 -4.322197
v -3.137120 4.467352 -4.220949
v -3.142315 4.470129 -4.322197
v -3.142315 4.470129 -4.220949
v -3.147951 4.471839 -4.322197
v -3.147951 4.471839 -4.220949
v -3.153813 4.510631 -4.185675
v -3.153813 4.074275 -4.185675
v -3.159675 4.510631 -4.186253
v -3.159675 4.074275 -4.186253
v -3.165312 4.510631 -4.187963
v -3.165312 4.074275 -4.187963
v -3.170506 4.510631 -4.190739
v -3.170506 4.074275 -4.190739
v -3.175060 4.510631 -4.194476
v -3.175060 4.074275 -4.194476
v -3.178796 4.510631 -4.199029
v -3.178796 4.074275 -4.199029
v -3.181573 4.510631 -4.204224
v -3.181573 4.074275 -4.204224
v -3.183283 4.510631 -4.209860
v -3.183283 4.074275 -4.209860
v -3.183860 4.510631 -4.215723
v -3.183860 4.074275 -4.215723
v -3.183283 4.510631 -4.221584
v -3.183283 4.074275 -4.221584
v -3.181573 4.510631 -4.227221
v -3.181573 4.074275 -4.227221
v -3.178796 4.510631 -4.232416
v -3.178796 4.074275 -4.232416
v -3.175060 4.510631 -4.236969
v -3.175060 4.074275 -4.236969
v -3.170506 4.510631 -4.240705
v -3.170506 4.074275 -4.240705
v -3.165312 4.510631 -4.243482
v -3.165312 4.074275 -4.243482
v -3.159675 4.510631 -4.245192
v -3.159675 4.074275 -4.245192
v -3.153813 4.510631 -4.245770
v -3.153813 4.074275 -4.245770
v -3.147951 4.510631 -4.245192
v -3.147951 4.074275 -4.245192
v -3.142315 4.510631 -4.243482
v -3.142315 4.074275 -4.243482
v -3.137120 4.510631 -4.240705
v -3.137120 4.074275 -4.240705
v -3.132566 4.510631 -4.236969
v -3.132566 4.074275 -4.236969
v -3.128830 4.510631 -4.232416
v -3.128830 4.074275 -4.232416
v -3.126053 4.510631 -4.227221
v -3.126053 4.074275 -4.227221
v -3.124343 4.510631 -4.221584
v -3.124343 4.074275 -4.221584
v -3.123766 4.510631 -4.215723
v -3.123766 4.074275 -4.215723
v -3.124343 4.510631 -4.209860
v -3.124343 4.074275 -4.209860
v -3.126053 4.510631 -4.204224
v -3.126053 4.074275 -4.204224
v -3.128830 4.510631 -4.199029
v -3.128830 4.074275 -4.199029
v -3.132566 4.510631 -4.194476
v -3.132566 4.074275 -4.194476
v -3.137120 4.510631 -4.190739
v -3.137120 4.074275 -4.190739
v -3.142315 4.510631 -4.187963
v -3.142315 4.074275 -4.187963
v -3.147951 4.510631 -4.186253
v -3.147951 4.074275 -4.186253
v -3.153813 4.548608 -4.200185
v -3.156844 4.548608 -4.200484
v -3.156844 4.036297 -4.200484
v -3.153813 4.036297 -4.200185
v -3.159759 4.548608 -4.201368
v -3.159759 4.036297 -4.201368
v -3.162445 4.548608 -4.202804
v -3.162445 4.036297 -4.202804
v -3.164800 4.548608 -4.204736
v -3.164799 4.036297 -4.204736
v -3.166732 4.548608 -4.207090
v -3.166732 4.036297 -4.207090
v -3.168167 4.548608 -4.209776
v -3.168167 4.036297 -4.209776
v -3.169052 4.548608 -4.212691
v -3.169052 4.036297 -4.212691
v -3.169350 4.548608 -4.215723
v -3.169350 4.036297 -4.215723
v -3.169052 4.548608 -4.218753
v -3.169052 4.036297 -4.218753
v -3.168167 4.548608 -4.221668
v -3.168167 4.036297 -4.221668
v -3.166732 4.548608 -4.224354
v -3.166732 4.036297 -4.224354
v -3.164800 4.548608 -4.226709
v -3.164799 4.036297 -4.226709
v -3.162445 4.548608 -4.228641
v -3.162445 4.036297 -4.228641
v -3.159759 4.548608 -4.230077
v -3.159759 4.036297 -4.230077
v -3.156844 4.548608 -4.230961
v -3.156844 4.036297 -4.230961
v -3.153813 4.548608 -4.231259
v -3.153813 4.036297 -4.231259
v -3.150782 4.548608 -4.230961
v -3.150782 4.036297 -4.230961
v -3.147867 4.548608 -4.230077
v -3.147867 4.036297 -4.230077
v -3.145181 4.548608 -4.228641
v -3.145181 4.036297 -4.228641
v -3.142827 4.548608 -4.226709
v -3.142827 4.036297 -4.226709
v -3.140894 4.548608 -4.224354
v -3.140894 4.036297 -4.224354
v -3.139459 4.548608 -4.221668
v -3.139459 4.036297 -4.221668
v -3.138575 4.548608 -4.218753
v -3.138574 4.036297 -4.218753
v -3.138276 4.548608 -4.215723
v -3.138276 4.036297 -4.215723
v -3.138575 4.548608 -4.212691
v -3.138574 4.036297 -4.212691
v -3.139459 4.548608 -4.209776
v -3.139459 4.036297 -4.209776
v -3.140894 4.548608 -4.207090
v -3.140894 4.036297 -4.207090
v -3.142827 4.548608 -4.204736
v -3.142827 4.036297 -4.204736
v -3.145181 4.548608 -4.202804
v -3.145181 4.036297 -4.202804
v -3.147867 4.548608 -4.201368
v -3.147867 4.036297 -4.201368
v -3.150782 4.548608 -4.200484
v -3.150782 4.036297 -4.200484
vn 1.0000 0.0000 0.0000
vn 0.0000 0.0000 -1.0000
vn -1.0000 0.0000 0.0000
vn 0.0000 0.0000 1.0000
vn 0.0000 -1.0000 0.0000
vn 0.0000 1.0000 0.0000
vn -0.0980 0.9952 0.0000
vn -0.2903 0.9569 0.0000
vn -0.4714 0.8819 0.0000
vn -0.6344 0.7730 0.0000
vn -0.7730 0.6344 0.0000
vn -0.8819 0.4714 0.0000
vn -0.9569 0.2903 0.0000
vn -0.9952 0.0980 0.0000
vn -0.9952 -0.0980 0.0000
vn -0.9569 -0.2903 0.0000
vn -0.8819 -0.4714 0.0000
vn -0.7730 -0.6344 0.0000
vn -0.6344 -0.7730 0.0000
vn -0.4714 -0.8819 0.0000
vn -0.2903 -0.9569 0.0000
vn -0.0980 -0.9952 0.0000
vn 0.0980 -0.9952 0.0000
vn 0.2903 -0.9569 0.0000
vn 0.4714 -0.8819 0.0000
vn 0.6344 -0.7730 0.0000
vn 0.7730 -0.6344 0.0000
vn 0.8819 -0.4714 0.0000
vn 0.9569 -0.2903 0.0000
vn 0.9952 -0.0980 0.0000
vn 0.9952 0.0980 0.0000
vn 0.9569 0.2903 0.0000
vn 0.8819 0.4714 0.0000
vn 0.7730 0.6344 0.0000
vn 0.6344 0.7730 0.0000
vn 0.4714 0.8819 0.0000
vn 0.2903 0.9569 0.0000
vn 0.0980 0.9952 0.0000
vn -0.0980 0.0000 0.9952
vn -0.2903 0.0000 0.9569
vn -0.4714 0.0000 0.8819
vn -0.6344 0.0000 0.7730
vn -0.7730 0.0000 0.6344
vn -0.8819 0.0000 0.4714
vn -0.9569 0.0000 0.2903
vn -0.9952 0.0000 0.0980
vn -0.9952 0.0000 -0.0980
vn -0.9569 0.0000 -0.2903
vn -0.8819 0.0000 -0.4714
vn -0.7730 0.0000 -0.6344
vn -0.6344 0.0000 -0.7730
vn -0.4714 0.0000 -0.8819
vn -0.2903 0.0000 -0.9569
vn -0.0980 0.0000 -0.9952
vn 0.0980 0.0000 -0.9952
vn 0.2903 0.0000 -0.9569
vn 0.4714 0.0000 -0.8819
vn 0.6344 0.0000 -0.7730
vn 0.7730 0.0000 -0.6344
vn 0.8819 0.0000 -0.4714
vn 0.9569 0.0000 -0.2903
vn 0.9952 0.0000 -0.0980
vn 0.9952 0.0000 0.0980
vn 0.9569 0.0000 0.2903
vn 0.8819 0.0000 0.4714
vn 0.7730 0.0000 0.6344
vn 0.6344 0.0000 0.7730
vn 0.4714 0.0000 0.8819
vn -0.9302 -0.3554 -0.0916
vn 0.2903 0.0000 0.9569
vn 0.0980 0.0000 0.9952
vn 0.2714 0.3554 -0.8945
vn -0.0915 0.3554 0.9302
vn 0.8243 0.3554 0.4407
vn 0.2714 -0.3554 -0.8945
vn -0.0915 -0.3554 0.9302
vn 0.8243 -0.3554 0.4406
vn -0.8944 0.3554 -0.2713
vn 0.4405 0.3554 -0.8244
vn -0.8944 -0.3554 -0.2714
vn 0.7226 0.3554 0.5930
vn 0.4405 -0.3554 -0.8244
vn -0.2714 0.3554 0.8945
vn 0.7225 -0.3554 0.5930
vn -0.8244 0.3554 -0.4406
vn -0.2714 -0.3554 0.8945
vn 0.5930 0.3554 -0.7226
vn -0.8244 -0.3554 -0.4406
vn 0.5929 0.3554 0.7226
vn 0.5929 -0.3554 -0.7226
vn -0.4407 0.3554 0.8243
vn 0.5930 -0.3554 0.7226
vn -0.7226 0.3554 -0.5929
vn -0.4407 -0.3554 0.8243
vn 0.7226 0.3554 -0.5930
vn -0.7226 -0.3554 -0.5929
vn 0.4407 0.3554 0.8243
vn 0.7226 -0.3554 -0.5929
vn -0.5929 0.3554 0.7226
vn 0.4407 -0.3554 0.8243
vn -0.5930 0.3554 -0.7226
vn -0.5930 -0.3554 0.7226
vn 0.8244 0.3554 -0.4406
vn -0.5929 -0.3554 -0.7226
vn 0.2714 0.3554 0.8945
vn 0.8243 -0.3554 -0.4406
vn -0.7226 0.3554 0.5929
vn 0.2714 -0.3554 0.8945
vn -0.4405 0.3554 -0.8244
vn -0.7225 -0.3554 0.5930
vn 0.8944 0.3554 -0.2713
vn -0.4405 -0.3554 -0.8244
vn 0.0915 0.3554 0.9302
vn 0.8944 -0.3554 -0.2713
vn -0.8243 0.3554 0.4407
vn 0.0915 -0.3554 0.9302
vn -0.2714 0.3554 -0.8945
vn -0.8243 -0.3554 0.4406
vn 0.9302 0.3554 -0.0916
vn -0.2714 -0.3554 -0.8945
vn 0.9302 -0.3554 -0.0916
vn -0.8945 0.3554 0.2713
vn -0.0917 0.3554 -0.9302
vn -0.8945 -0.3554 0.2713
vn 0.9302 0.3554 0.0916
vn -0.0916 -0.3554 -0.9302
vn 0.9302 -0.3554 0.0916
vn -0.9302 0.3554 0.0916
vn 0.0917 0.3554 -0.9302
vn -0.9302 -0.3554 0.0916
vn 0.8945 0.3554 0.2712
vn 0.0916 -0.3554 -0.9302
vn 0.8945 -0.3554 0.2713
vn -0.9302 0.3554 -0.0916
usemtl Black
s off
f 673//175 675//175 676//175 674//175
f 675//176 679//176 680//176 676//176
f 679//177 677//177 678//177 680//177
f 677//178 673//178 674//178 678//178
f 675//179 673//179 677//179 679//179
f 680//180 678//180 674//180 676//180
usemtl Metal.001
f 681//181 683//181 684//181 682//181
f 683//182 685//182 686//182 684//182
f 685//183 687//183 688//183 686//183
f 687//184 689//184 690//184 688//184
f 689//185 691//185 692//185 690//185
f 691//186 693//186 694//186 692//186
f 693//187 695//187 696//187 694//187
f 695//188 697//188 698//188 696//188
f 697//189 699//189 700//189 698//189
f 699//190 701//190 702//190 700//190
f 701//191 703//191 704//191 702//191
f 703//192 705//192 706//192 704//192
f 705//193 707//193 708//193 706//193
f 707//194 709//194 710//194 708//194
f 709//195 711//195 712//195 710//195
f 711//196 713//196 714//196 712//196
f 713//197 715//197 716//197 714//197
f 715//198 717//198 718//198 716//198
f 717//199 719//199 720//199 718//199
f 719//200 721//200 722//200 720//200
f 721//201 723//201 724//201 722//201
f 723//202 725//202 726//202 724//202
f 725//203 727//203 728//203 726//203
f 727//204 729//204 730//204 728//204
f 729//205 731//205 732//205 730//205
f 731//206 733//206 734//206 732//206
f 733//207 735//207 736//207 734//207
f 735//208 737//208 738//208 736//208
f 737//209 739//209 740//209 738//209
f 739//210 741//210 742//210 740//210
f 684//178 686//178 688//178 690//178 692//178 694//178 696//178 698//178 700//178 702//178 704//178 706//178 708//178 710//178 712//178 714//178 716//178 718//178 720//178 722//178 724//178 726//178 728//178 730//178 732//178 734//178 736//178 738//178 740//178 742//178 744//178 682//178
f 741//211 743//211 744//211 742//211
f 743//212 681//212 682//212 744//212
f 681//176 743//176 741//176 739//176 737//176 735//176 733//176 731//176 729//176 727//176 725//176 723//176 721//176 719//176 717//176 715//176 713//176 711//176 709//176 707//176 705//176 703//176 701//176 699//176 697//176 695//176 693//176 691//176 689//176 687//176 685//176 683//176
f 745//181 747//181 748//181 746//181
f 747//182 749//182 750//182 748//182
f 749//183 751//183 752//183 750//183
f 751//184 753//184 754//184 752//184
f 753//185 755//185 756//185 754//185
f 755//186 757//186 758//186 756//186
f 757//187 759//187 760//187 758//187
f 759//188 761//188 762//188 760//188
f 761//189 763//189 764//189 762//189
f 763//190 765//190 766//190 764//190
f 765//191 767//191 768//191 766//191
f 767//192 769//192 770//192 768//192
f 769//193 771//193 772//193 770//193
f 771//194 773//194 774//194 772//194
f 773//195 775//195 776//195 774//195
f 775//196 777//196 778//196 776//196
f 777//197 779//197 780//197 778//197
f 779//198 781//198 782//198 780//198
f 781//199 783//199 784//199 782//199
f 783//200 785//200 786//200 784//200
f 785//201 787//201 788//201 786//201
f 787//202 789//202 790//202 788//202
f 789//203 791//203 792//203 790//203
f 791//204 793//204 794//204 792//204
f 793//205 795//205 796//205 794//205
f 795//206 797//206 798//206 796//206
f 797//207 799//207 800//207 798//207
f 799//208 801//208 802//208 800//208
f 801//209 803//209 804//209 802//209
f 803//210 805//210 806//210 804//210
f 748//178 750//178 752//178 754//178 756//178 758//178 760//178 762//178 764//178 766//178 768//178 770//178 772//178 774//178 776//178 778//178 780//178 782//178 784//178 786//178 788//178 790//178 792//178 794//178 796//178 798//178 800//178 802//178 804//178 806//178 808//178 746//178
f 805//211 807//211 808//211 806//211
f 807//212 745//212 746//212 808//212
f 745//176 807//176 805//176 803//176 801//176 799//176 797//176 795//176 793//176 791//176 789//176 787//176 785//176 783//176 781//176 779//176 777//176 775//176 773//176 771//176 769//176 767//176 765//176 763//176 761//176 759//176 757//176 755//176 753//176 751//176 749//176 747//176
f 809//213 811//213 812//213 810//213
f 811//214 813//214 814//214 812//214
f 813//215 815//215 816//215 814//215
f 815//216 817//216 818//216 816//216
f 817//217 819//217 820//217 818//217
f 819//218 821//218 822//218 820//218
f 821//219 823//219 824//219 822//219
f 823//220 825//220 826//220 824//220
f 825//221 827//221 828//221 826//221
f 827//222 829//222 830//222 828//222
f 829//223 831//223 832//223 830//223
f 831//224 833//224 834//224 832//224
f 833//225 835//225 836//225 834//225
f 835//226 837//226 838//226 836//226
f 837//227 839//227 840//227 838//227
f 839//228 841//228 842//228 840//228
f 841//229 843//229 844//229 842//229
f 843//230 845//230 846//230 844//230
f 845//231 847//231 848//231 846//231
f 847//232 849//232 850//232 848//232
f 849//233 851//233 852//233 850//233
f 851//234 853//234 854//234 852//234
f 853//235 855//235 856//235 854//235
f 855//236 857//236 858//236 856//236
f 857//237 859//237 860//237 858//237
f 859//238 861//238 862//238 860//238
f 861//239 863//239 864//239 862//239
f 863//240 865//240 866//240 864//240
f 865//241 867//241 868//241 866//241
f 867//242 869//242 870//242 868//242
f 828//243 892//243 890//243 826//243
f 869//244 871//244 872//244 870//244
f 871//245 809//245 810//245 872//245
f 843//246 907//246 909//246 845//246
f 875//179 878//179 880//179 882//179 884//179 886//179 888//179 890//179 892//179 894//179 896//179 898//179 900//179 902//179 904//179 906//179 908//179 910//179 912//179 914//179 916//179 918//179 920//179 922//179 924//179 926//179 928//179 930//179 932//179 934//179 936//179 876//179
f 873//180 935//180 933//180 931//180 929//180 927//180 925//180 923//180 921//180 919//180 917//180 915//180 913//180 911//180 909//180 907//180 905//180 903//180 901//180 899//180 897//180 895//180 893//180 891//180 889//180 887//180 885//180 883//180 881//180 879//180 877//180 874//180
f 809//247 873//247 874//247 811//247
f 861//248 925//248 927//248 863//248
f 846//249 910//249 908//249 844//249
f 812//250 875//250 876//250 810//250
f 864//251 928//251 926//251 862//251
f 827//252 891//252 893//252 829//252
f 845//253 909//253 911//253 847//253
f 830//254 894//254 892//254 828//254
f 863//255 927//255 929//255 865//255
f 848//256 912//256 910//256 846//256
f 811//257 874//257 877//257 813//257
f 866//258 930//258 928//258 864//258
f 829//259 893//259 895//259 831//259
f 814//260 878//260 875//260 812//260
f 847//261 911//261 913//261 849//261
f 832//262 896//262 894//262 830//262
f 865//263 929//263 931//263 867//263
f 850//264 914//264 912//264 848//264
f 813//265 877//265 879//265 815//265
f 868//266 932//266 930//266 866//266
f 831//267 895//267 897//267 833//267
f 816//268 880//268 878//268 814//268
f 849//269 913//269 915//269 851//269
f 834//270 898//270 896//270 832//270
f 867//271 931//271 933//271 869//271
f 852//272 916//272 914//272 850//272
f 815//273 879//273 881//273 817//273
f 870//274 934//274 932//274 868//274
f 833//275 897//275 899//275 835//275
f 818//276 882//276 880//276 816//276
f 851//277 915//277 917//277 853//277
f 836//278 900//278 898//278 834//278
f 869//279 933//279 935//279 871//279
f 854//280 918//280 916//280 852//280
f 817//281 881//281 883//281 819//281
f 872//282 936//282 934//282 870//282
f 835//283 899//283 901//283 837//283
f 820//284 884//284 882//284 818//284
f 853//285 917//285 919//285 855//285
f 838//286 902//286 900//286 836//286
f 871//287 935//287 873//287 809//287
f 856//288 920//288 918//288 854//288
f 819//289 883//289 885//289 821//289
f 810//290 876//290 936//290 872//290
f 837//291 901//291 903//291 839//291
f 822//292 886//292 884//292 820//292
f 855//293 919//293 921//293 857//293
f 840//294 904//294 902//294 838//294
f 858//295 922//295 920//295 856//295
f 821//296 885//296 887//296 823//296
f 839//297 903//297 905//297 841//297
f 824//298 888//298 886//298 822//298
f 857//299 921//299 923//299 859//299
f 842//300 906//300 904//300 840//300
f 860//301 924//301 922//301 858//301
f 823//302 887//302 889//302 825//302
f 841//303 905//303 907//303 843//303
f 826//304 890//304 888//304 824//304
f 859//305 923//305 925//305 861//305
f 844//306 908//306 906//306 842//306
f 862//307 926//307 924//307 860//307
f 825//308 889//308 891//308 827//308
o Door_L_Cube.009
v -5.515941 2.029452 -4.291431
v -5.515941 7.257620 -4.291431
v -5.515941 2.029452 -4.358589
v -5.515941 7.257620 -4.358589
v -3.269265 2.029452 -4.291431
v -3.269265 7.257620 -4.291431
v -3.269265 2.029452 -4.358589
v -3.269265 7.257620 -4.358589
v -3.368497 4.172584 -4.322197
v -3.368497 4.172584 -4.220949
v -3.362635 4.172006 -4.322197
v -3.362635 4.172006 -4.220949
v -3.356998 4.170296 -4.322197
v -3.356998 4.170296 -4.220949
v -3.351803 4.167520 -4.322197
v -3.351803 4.167520 -4.220949
v -3.347250 4.163783 -4.322197
v -3.347250 4.163783 -4.220949
v -3.343513 4.159229 -4.322197
v -3.343513 4.159229 -4.220949
v -3.340737 4.154035 -4.322197
v -3.340737 4.154035 -4.220949
v -3.339027 4.148398 -4.322197
v -3.339027 4.148398 -4.220949
v -3.338449 4.142536 -4.322197
v -3.338449 4.142536 -4.220949
v -3.339027 4.136674 -4.322197
v -3.339027 4.136674 -4.220949
v -3.340737 4.131038 -4.322197
v -3.340737 4.131038 -4.220949
v -3.343513 4.125843 -4.322197
v -3.343513 4.125843 -4.220949
v -3.347250 4.121290 -4.322197
v -3.347250 4.121290 -4.220949
v -3.351803 4.117553 -4.322197
v -3.351803 4.117553 -4.220949
v -3.356998 4.114776 -4.322197
v -3.356998 4.114776 -4.220949
v -3.362635 4.113066 -4.322197
v -3.362635 4.113066 -4.220949
v -3.368497 4.112489 -4.322197
v -3.368497 4.112489 -4.220949
v -3.374359 4.113066 -4.322197
v -3.374359 4.113066 -4.220949
v -3.379995 4.114776 -4.322197
v -3.379995 4.114776 -4.220949
v -3.385190 4.117553 -4.322197
v -3.385190 4.117553 -4.220949
v -3.389743 4.121290 -4.322197
v -3.389743 4.121290 -4.220949
v -3.393480 4.125843 -4.322197
v -3.393480 4.125843 -4.220949
v -3.396257 4.131038 -4.322197
v -3.396257 4.131038 -4.220949
v -3.397966 4.136674 -4.322197
v -3.397966 4.136674 -4.220949
v -3.398544 4.142536 -4.322197
v -3.398544 4.142536 -4.220949
v -3.397966 4.148398 -4.322197
v -3.397966 4.148398 -4.220949
v -3.396257 4.154035 -4.322197
v -3.396257 4.154035 -4.220949
v -3.393480 4.159229 -4.322197
v -3.393480 4.159229 -4.220949
v -3.389743 4.163783 -4.322197
v -3.389743 4.163783 -4.220949
v -3.385190 4.167520 -4.322197
v -3.385190 4.167520 -4.220949
v -3.379995 4.170296 -4.322197
v -3.379995 4.170296 -4.220949
v -3.374359 4.172006 -4.322197
v -3.374359 4.172006 -4.220949
v -3.368497 4.472416 -4.322197
v -3.368497 4.472416 -4.220949
v -3.362635 4.471839 -4.322197
v -3.362635 4.471839 -4.220949
v -3.356998 4.470129 -4.322197
v -3.356998 4.470129 -4.220949
v -3.351803 4.467352 -4.322197
v -3.351803 4.467352 -4.220949
v -3.347250 4.463615 -4.322197
v -3.347250 4.463615 -4.220949
v -3.343513 4.459063 -4.322197
v -3.343513 4.459063 -4.220949
v -3.340737 4.453867 -4.322197
v -3.340737 4.453867 -4.220949
v -3.339027 4.448231 -4.322197
v -3.339027 4.448231 -4.220949
v -3.338449 4.442369 -4.322197
v -3.338449 4.442369 -4.220949
v -3.339027 4.436507 -4.322197
v -3.339027 4.436507 -4.220949
v -3.340737 4.430871 -4.322197
v -3.340737 4.430871 -4.220949
v -3.343513 4.425676 -4.322197
v -3.343513 4.425676 -4.220949
v -3.347250 4.421123 -4.322197
v -3.347250 4.421123 -4.220949
v -3.351803 4.417386 -4.322197
v -3.351803 4.417386 -4.220949
v -3.356998 4.414609 -4.322197
v -3.356998 4.414609 -4.220949
v -3.362635 4.412899 -4.322197
v -3.362635 4.412899 -4.220949
v -3.368497 4.412322 -4.322197
v -3.368497 4.412322 -4.220949
v -3.374359 4.412899 -4.322197
v -3.374359 4.412899 -4.220949
v -3.379995 4.414609 -4.322197
v -3.379995 4.414609 -4.220949
v -3.385190 4.417386 -4.322197
v -3.385190 4.417386 -4.220949
v -3.389743 4.421123 -4.322197
v -3.389743 4.421123 -4.220949
v -3.393480 4.425676 -4.322197
v -3.393480 4.425676 -4.220949
v -3.396257 4.430871 -4.322197
v -3.396257 4.430871 -4.220949
v -3.397966 4.436507 -4.322197
v -3.397966 4.436507 -4.220949
v -3.398544 4.442369 -4.322197
v -3.398544 4.442369 -4.220949
v -3.397966 4.448231 -4.322197
v -3.397966 4.448231 -4.220949
v -3.396257 4.453867 -4.322197
v -3.396257 4.453867 -4.220949
v -3.393480 4.459063 -4.322197
v -3.393480 4.459063 -4.220949
v -3.389743 4.463615 -4.322197
v -3.389743 4.463615 -4.220949
v -3.385190 4.467352 -4.322197
v -3.385190 4.467352 -4.220949
v -3.379995 4.470129 -4.322197
v -3.379995 4.470129 -4.220949
v -3.374359 4.471839 -4.322197
v -3.374359 4.471839 -4.220949
v -3.368497 4.510631 -4.185675
v -3.368497 4.074275 -4.185675
v -3.362635 4.510631 -4.186253
v -3.362635 4.074275 -4.186253
v -3.356998 4.510631 -4.187963
v -3.356998 4.074275 -4.187963
v -3.351803 4.510631 -4.190739
v -3.351803 4.074275 -4.190739
v -3.347250 4.510631 -4.194476
v -3.347250 4.074275 -4.194476
v -3.343513 4.510631 -4.199029
v -3.343513 4.074275 -4.199029
v -3.340737 4.510631 -4.204224
v -3.340737 4.074275 -4.204224
v -3.339027 4.510631 -4.209860
v -3.339027 4.074275 -4.209860
v -3.338449 4.510631 -4.215723
v -3.338449 4.074275 -4.215723
v -3.339027 4.510631 -4.221584
v -3.339027 4.074275 -4.221584
v -3.340737 4.510631 -4.227221
v -3.340737 4.074275 -4.227221
v -3.343513 4.510631 -4.232416
v -3.343513 4.074275 -4.232416
v -3.347250 4.510631 -4.236969
v -3.347250 4.074275 -4.236969
v -3.351803 4.510631 -4.240705
v -3.351803 4.074275 -4.240705
v -3.356998 4.510631 -4.243482
v -3.356998 4.074275 -4.243482
v -3.362635 4.510631 -4.245192
v -3.362635 4.074275 -4.245192
v -3.368497 4.510631 -4.245770
v -3.368497 4.074275 -4.245770
v -3.374359 4.510631 -4.245192
v -3.374359 4.074275 -4.245192
v -3.379995 4.510631 -4.243482
v -3.379995 4.074275 -4.243482
v -3.385190 4.510631 -4.240705
v -3.385190 4.074275 -4.240705
v -3.389743 4.510631 -4.236969
v -3.389743 4.074275 -4.236969
v -3.393480 4.510631 -4.232416
v -3.393480 4.074275 -4.232416
v -3.396257 4.510631 -4.227221
v -3.396257 4.074275 -4.227221
v -3.397966 4.510631 -4.221584
v -3.397966 4.074275 -4.221584
v -3.398544 4.510631 -4.215723
v -3.398544 4.074275 -4.215723
v -3.397966 4.510631 -4.209860
v -3.397966 4.074275 -4.209860
v -3.396257 4.510631 -4.204224
v -3.396257 4.074275 -4.204224
v -3.393480 4.510631 -4.199029
v -3.393480 4.074275 -4.199029
v -3.389743 4.510631 -4.194476
v -3.389743 4.074275 -4.194476
v -3.385190 4.510631 -4.190739
v -3.385190 4.074275 -4.190739
v -3.379995 4.510631 -4.187963
v -3.379995 4.074275 -4.187963
v -3.374359 4.510631 -4.186253
v -3.374359 4.074275 -4.186253
v -3.368497 4.548608 -4.200185
v -3.365465 4.548608 -4.200484
v -3.365466 4.036297 -4.200484
v -3.368497 4.036297 -4.200185
v -3.362551 4.548608 -4.201368
v -3.362551 4.036297 -4.201368
v -3.359865 4.548608 -4.202804
v -3.359865 4.036297 -4.202804
v -3.357510 4.548608 -4.204736
v -3.357510 4.036297 -4.204736
v -3.355578 4.548608 -4.207090
v -3.355578 4.036297 -4.207090
v -3.354142 4.548608 -4.209776
v -3.354142 4.036297 -4.209776
v -3.353258 4.548608 -4.212691
v -3.353258 4.036297 -4.212691
v -3.352960 4.548608 -4.215723
v -3.352960 4.036297 -4.215723
v -3.353258 4.548608 -4.218753
v -3.353258 4.036297 -4.218753
v -3.354142 4.548608 -4.221668
v -3.354142 4.036297 -4.221668
v -3.355578 4.548608 -4.224354
v -3.355578 4.036297 -4.224354
v -3.357510 4.548608 -4.226709
v -3.357510 4.036297 -4.226709
v -3.359865 4.548608 -4.228641
v -3.359865 4.036297 -4.228641
v -3.362551 4.548608 -4.230077
v -3.362551 4.036297 -4.230077
v -3.365465 4.548608 -4.230961
v -3.365466 4.036297 -4.230961
v -3.368497 4.548608 -4.231259
v -3.368497 4.036297 -4.231259
v -3.371528 4.548608 -4.230961
v -3.371528 4.036297 -4.230961
v -3.374442 4.548608 -4.230077
v -3.374443 4.036297 -4.230077
v -3.377129 4.548608 -4.228641
v -3.377129 4.036297 -4.228641
v -3.379483 4.548608 -4.226709
v -3.379483 4.036297 -4.226709
v -3.381415 4.548608 -4.224354
v -3.381415 4.036297 -4.224354
v -3.382851 4.548608 -4.221668
v -3.382851 4.036297 -4.221668
v -3.383735 4.548608 -4.218753
v -3.383735 4.036297 -4.218753
v -3.384034 4.548608 -4.215723
v -3.384034 4.036297 -4.215723
v -3.383735 4.548608 -4.212691
v -3.383735 4.036297 -4.212691
v -3.382851 4.548608 -4.209776
v -3.382851 4.036297 -4.209776
v -3.381415 4.548608 -4.207090
v -3.381415 4.036297 -4.207090
v -3.379483 4.548608 -4.204736
v -3.379483 4.036297 -4.204736
v -3.377129 4.548608 -4.202804
v -3.377129 4.036297 -4.202804
v -3.374442 4.548608 -4.201368
v -3.374443 4.036297 -4.201368
v -3.371528 4.548608 -4.200484
v -3.371528 4.036297 -4.200484
vn -1.0000 0.0000 0.0000
vn 0.0000 0.0000 -1.0000
vn 1.0000 0.0000 0.0000
vn 0.0000 0.0000 1.0000
vn 0.0000 -1.0000 0.0000
vn 0.0000 1.0000 0.0000
vn 0.0980 0.9952 0.0000
vn 0.2903 0.9569 0.0000
vn 0.4714 0.8819 0.0000
vn 0.6344 0.7730 0.0000
vn 0.7730 0.6344 0.0000
vn 0.8819 0.4714 0.0000
vn 0.9569 0.2903 0.0000
vn 0.9952 0.0980 0.0000
vn 0.9952 -0.0980 0.0000
vn 0.9569 -0.2903 0.0000
vn 0.8819 -0.4714 0.0000
vn 0.7730 -0.6344 0.0000
vn 0.6344 -0.7730 0.0000
vn 0.4714 -0.8819 0.0000
vn 0.2903 -0.9569 0.0000
vn 0.0980 -0.9952 0.0000
vn -0.0980 -0.9952 0.0000
vn -0.2903 -0.9569 0.0000
vn -0.4714 -0.8819 0.0000
vn -0.6344 -0.7730 0.0000
vn -0.7730 -0.6344 0.0000
vn -0.8819 -0.4714 0.0000
vn -0.9570 -0.2902 0.0000
vn -0.9952 -0.0980 0.0000
vn -0.9952 0.0980 0.0000
vn -0.9570 0.2902 0.0000
vn -0.8819 0.4714 0.0000
vn -0.7730 0.6344 0.0000
vn -0.6344 0.7730 0.0000
vn -0.4714 0.8819 0.0000
vn -0.2903 0.9569 0.0000
vn -0.0980 0.9952 0.0000
vn 0.0980 0.0000 0.9952
vn 0.2903 0.0000 0.9569
vn 0.4714 0.0000 0.8819
vn 0.6344 0.0000 0.7730
vn 0.7730 0.0000 0.6344
vn 0.8819 0.0000 0.4714
vn 0.9569 0.0000 0.2903
vn 0.9952 0.0000 0.0980
vn 0.9952 0.0000 -0.0980
vn 0.9569 0.0000 -0.2903
vn 0.8819 0.0000 -0.4714
vn 0.7730 0.0000 -0.6344
vn 0.6344 0.0000 -0.7730
vn 0.4714 0.0000 -0.8819
vn 0.2903 0.0000 -0.9569
vn 0.0980 0.0000 -0.9952
vn -0.0980 0.0000 -0.9952
vn -0.2903 0.0000 -0.9569
vn -0.4714 0.0000 -0.8819
vn -0.6344 0.0000 -0.7730
vn -0.7730 0.0000 -0.6344
vn -0.8819 0.0000 -0.4714
vn -0.9569 0.0000 -0.2903
vn -0.9952 0.0000 -0.0980
vn -0.9952 0.0000 0.0980
vn -0.9569 0.0000 0.2903
vn -0.8819 0.0000 0.4714
vn -0.7730 0.0000 0.6344
vn -0.6344 0.0000 0.7730
vn -0.4714 0.0000 0.8819
vn 0.9302 -0.3554 -0.0916
vn -0.2903 0.0000 0.9569
vn -0.0980 0.0000 0.9952
vn -0.2714 0.3554 -0.8945
vn 0.0915 0.3554 0.9302
vn -0.8243 0.3554 0.4407
vn -0.2714 -0.3554 -0.8945
vn 0.0915 -0.3554 0.9302
vn -0.8243 -0.3554 0.4406
vn 0.8944 0.3555 -0.2714
vn -0.4405 0.3554 -0.8244
vn 0.8944 -0.3555 -0.2714
vn -0.7226 0.3554 0.5930
vn -0.4405 -0.3554 -0.8244
vn 0.2714 0.3554 0.8945
vn -0.7225 -0.3554 0.5930
vn 0.8244 0.3554 -0.4406
vn 0.2714 -0.3554 0.8945
vn -0.5930 0.3554 -0.7226
vn 0.8244 -0.3554 -0.4406
vn -0.5929 0.3554 0.7226
vn -0.5929 -0.3554 -0.7226
vn 0.4407 0.3554 0.8243
vn -0.5930 -0.3554 0.7226
vn 0.7226 0.3554 -0.5929
vn 0.4407 -0.3554 0.8243
vn -0.7226 0.3554 -0.5930
vn 0.7226 -0.3554 -0.5929
vn -0.4407 0.3554 0.8243
vn -0.7226 -0.3554 -0.5929
vn 0.5929 0.3554 0.7226
vn -0.4407 -0.3554 0.8243
vn 0.5930 0.3554 -0.7226
vn 0.5930 -0.3554 0.7226
vn -0.8244 0.3554 -0.4406
vn 0.5929 -0.3554 -0.7226
vn -0.2714 0.3554 0.8945
vn -0.8244 -0.3554 -0.4406
vn 0.7226 0.3554 0.5929
vn -0.2714 -0.3554 0.8945
vn 0.4405 0.3554 -0.8244
vn 0.7225 -0.3554 0.5930
vn -0.8945 0.3554 -0.2713
vn 0.4405 -0.3554 -0.8244
vn -0.0915 0.3554 0.9302
vn -0.8944 -0.3554 -0.2713
vn 0.8243 0.3554 0.4407
vn -0.0915 -0.3554 0.9302
vn 0.2714 0.3554 -0.8945
vn 0.8243 -0.3554 0.4406
vn -0.9302 0.3554 -0.0916
vn 0.2714 -0.3554 -0.8945
vn -0.9302 -0.3554 -0.0916
vn 0.8945 0.3554 0.2713
vn 0.0917 0.3554 -0.9302
vn 0.8945 -0.3554 0.2713
vn -0.9302 0.3554 0.0916
vn 0.0916 -0.3554 -0.9302
vn -0.9302 -0.3554 0.0916
vn 0.9302 0.3554 0.0916
vn -0.0917 0.3554 -0.9302
vn 0.9302 -0.3554 0.0916
vn -0.8945 0.3554 0.2713
vn -0.0916 -0.3554 -0.9302
vn -0.8945 -0.3554 0.2713
vn 0.9302 0.3554 -0.0916
usemtl Black
s off
f 937//309 938//309 940//309 939//309
f 939//310 940//310 944//310 943//310
f 943//311 944//311 942//311 941//311
f 941//312 942//312 938//312 937//312
f 939//313 943//313 941//313 937//313
f 944//314 940//314 938//314 942//314
usemtl Metal.001
f 945//315 946//315 948//315 947//315
f 947//316 948//316 950//316 949//316
f 949//317 950//317 952//317 951//317
f 951//318 952//318 954//318 953//318
f 953//319 954//319 956//319 955//319
f 955//320 956//320 958//320 957//320
f 957//321 958//321 960//321 959//321
f 959//322 960//322 962//322 961//322
f 961//323 962//323 964//323 963//323
f 963//324 964//324 966//324 965//324
f 965//325 966//325 968//325 967//325
f 967//326 968//326 970//326 969//326
f 969//327 970//327 972//327 971//327
f 971//328 972//328 974//328 973//328
f 973//329 974//329 976//329 975//329
f 975//330 976//330 978//330 977//330
f 977//331 978//331 980//331 979//331
f 979//332 980//332 982//332 981//332
f 981//333 982//333 984//333 983//333
f 983//334 984//334 986//334 985//334
f 985//335 986//335 988//335 987//335
f 987//336 988//336 990//336 989//336
f 989//337 990//337 992//337 991//337
f 991//338 992//338 994//338 993//338
f 993//339 994//339 996//339 995//339
f 995//340 996//340 998//340 997//340
f 997//341 998//341 1000//341 999//341
f 999//342 1000//342 1002//342 1001//342
f 1001//343 1002//343 1004//343 1003//343
f 1003//344 1004//344 1006//344 1005//344
f 948//312 946//312 1008//312 1006//312 1004//312 1002//312 1000//312 998//312 996//312 994//312 992//312 990//312 988//312 986//312 984//312 982//312 980//312 978//312 976//312 974//312 972//312 970//312 968//312 966//312 964//312 962//312 960//312 958//312 956//312 954//312 952//312 950//312
f 1005//345 1006//345 1008//345 1007//345
f 1007//346 1008//346 946//346 945//346
f 945//310 947//310 949//310 951//310 953//310 955//310 957//310 959//310 961//310 963//310 965//310 967//310 969//310 971//310 973//310 975//310 977//310 979//310 981//310 983//310 985//310 987//310 989//310 991//310 993//310 995//310 997//310 999//310 1001//310 1003//310 1005//310 1007//310
f 1009//315 1010//315 1012//315 1011//315
f 1011//316 1012//316 1014//316 1013//316
f 1013//317 1014//317 1016//317 1015//317
f 1015//318 1016//318 1018//318 1017//318
f 1017//319 1018//319 1020//319 1019//319
f 1019//320 1020//320 1022//320 1021//320
f 1021//321 1022//321 1024//321 1023//321
f 1023//322 1024//322 1026//322 1025//322
f 1025//323 1026//323 1028//323 1027//323
f 1027//324 1028//324 1030//324 1029//324
f 1029//325 1030//325 1032//325 1031//325
f 1031//326 1032//326 1034//326 1033//326
f 1033//327 1034//327 1036//327 1035//327
f 1035//328 1036//328 1038//328 1037//328
f 1037//329 1038//329 1040//329 1039//329
f 1039//330 1040//330 1042//330 1041//330
f 1041//331 1042//331 1044//331 1043//331
f 1043//332 1044//332 1046//332 1045//332
f 1045//333 1046//333 1048//333 1047//333
f 1047//334 1048//334 1050//334 1049//334
f 1049//335 1050//335 1052//335 1051//335
f 1051//336 1052//336 1054//336 1053//336
f 1053//337 1054//337 1056//337 1055//337
f 1055//338 1056//338 1058//338 1057//338
f 1057//339 1058//339 1060//339 1059//339
f 1059//340 1060//340 1062//340 1061//340
f 1061//341 1062//341 1064//341 1063//341
f 1063//342 1064//342 1066//342 1065//342
f 1065//343 1066//343 1068//343 1067//343
f 1067//344 1068//344 1070//344 1069//344
f 1012//312 1010//312 1072//312 1070//312 1068//312 1066//312 1064//312 1062//312 1060//312 1058//312 1056//312 1054//312 1052//312 1050//312 1048//312 1046//312 1044//312 1042//312 1040//312 1038//312 1036//312 1034//312 1032//312 1030//312 1028//312 1026//312 1024//312 1022//312 1020//312 1018//312 1016//312 1014//312
f 1069//345 1070//345 1072//345 1071//345
f 1071//346 1072//346 1010//346 1009//346
f 1009//310 1011//310 1013//310 1015//310 1017//310 1019//310 1021//310 1023//310 1025//310 1027//310 1029//310 1031//310 1033//310 1035//310 1037//310 1039//310 1041//310 1043//310 1045//310 1047//310 1049//310 1051//310 1053//310 1055//310 1057//310 1059//310 1061//310 1063//310 1065//310 1067//310 1069//310 1071//310
f 1073//347 1074//347 1076//347 1075//347
f 1075//348 1076//348 1078//348 1077//348
f 1077//349 1078//349 1080//349 1079//349
f 1079//350 1080//350 1082//350 1081//350
f 1081//351 1082//351 1084//351 1083//351
f 1083//352 1084//352 1086//352 1085//352
f 1085//353 1086//353 1088//353 1087//353
f 1087//354 1088//354 1090//354 1089//354
f 1089//355 1090//355 1092//355 1091//355
f 1091//356 1092//356 1094//356 1093//356
f 1093//357 1094//357 1096//357 1095//357
f 1095//358 1096//358 1098//358 1097//358
f 1097//359 1098//359 1100//359 1099//359
f 1099//360 1100//360 1102//360 1101//360
f 1101//361 1102//361 1104//361 1103//361
f 1103//362 1104//362 1106//362 1105//362
f 1105//363 1106//363 1108//363 1107//363
f 1107//364 1108//364 1110//364 1109//364
f 1109//365 1110//365 1112//365 1111//365
f 1111//366 1112//366 1114//366 1113//366
f 1113//367 1114//367 1116//367 1115//367
f 1115//368 1116//368 1118//368 1117//368
f 1117//369 1118//369 1120//369 1119//369
f 1119//370 1120//370 1122//370 1121//370
f 1121//371 1122//371 1124//371 1123//371
f 1123//372 1124//372 1126//372 1125//372
f 1125//373 1126//373 1128//373 1127//373
f 1127//374 1128//374 1130//374 1129//374
f 1129//375 1130//375 1132//375 1131//375
f 1131//376 1132//376 1134//376 1133//376
f 1092//377 1090//377 1154//377 1156//377
f 1133//378 1134//378 1136//378 1135//378
f 1135//379 1136//379 1074//379 1073//379
f 1107//380 1109//380 1173//380 1171//380
f 1139//313 1140//313 1200//313 1198//313 1196//313 1194//313 1192//313 1190//313 1188//313 1186//313 1184//313 1182//313 1180//313 1178//313 1176//313 1174//313 1172//313 1170//313 1168//313 1166//313 1164//313 1162//313 1160//313 1158//313 1156//313 1154//313 1152//313 1150//313 1148//313 1146//313 1144//313 1142//313
f 1137//314 1138//314 1141//314 1143//314 1145//314 1147//314 1149//314 1151//314 1153//314 1155//314 1157//314 1159//314 1161//314 1163//314 1165//314 1167//314 1169//314 1171//314 1173//314 1175//314 1177//314 1179//314 1181//314 1183//314 1185//314 1187//314 1189//314 1191//314 1193//314 1195//314 1197//314 1199//314
f 1073//381 1075//381 1138//381 1137//381
f 1125//382 1127//382 1191//382 1189//382
f 1110//383 1108//383 1172//383 1174//383
f 1076//384 1074//384 1140//384 1139//384
f 1128//385 1126//385 1190//385 1192//385
f 1091//386 1093//386 1157//386 1155//386
f 1109//387 1111//387 1175//387 1173//387
f 1094//388 1092//388 1156//388 1158//388
f 1127//389 1129//389 1193//389 1191//389
f 1112//390 1110//390 1174//390 1176//390
f 1075//391 1077//391 1141//391 1138//391
f 1130//392 1128//392 1192//392 1194//392
f 1093//393 1095//393 1159//393 1157//393
f 1078//394 1076//394 1139//394 1142//394
f 1111//395 1113//395 1177//395 1175//395
f 1096//396 1094//396 1158//396 1160//396
f 1129//397 1131//397 1195//397 1193//397
f 1114//398 1112//398 1176//398 1178//398
f 1077//399 1079//399 1143//399 1141//399
f 1132//400 1130//400 1194//400 1196//400
f 1095//401 1097//401 1161//401 1159//401
f 1080//402 1078//402 1142//402 1144//402
f 1113//403 1115//403 1179//403 1177//403
f 1098//404 1096//404 1160//404 1162//404
f 1131//405 1133//405 1197//405 1195//405
f 1116//406 1114//406 1178//406 1180//406
f 1079//407 1081//407 1145//407 1143//407
f 1134//408 1132//408 1196//408 1198//408
f 1097//409 1099//409 1163//409 1161//409
f 1082//410 1080//410 1144//410 1146//410
f 1115//411 1117//411 1181//411 1179//411
f 1100//412 1098//412 1162//412 1164//412
f 1133//413 1135//413 1199//413 1197//413
f 1118//414 1116//414 1180//414 1182//414
f 1081//415 1083//415 1147//415 1145//415
f 1136//416 1134//416 1198//416 1200//416
f 1099//417 1101//417 1165//417 1163//417
f 1084//418 1082//418 1146//418 1148//418
f 1117//419 1119//419 1183//419 1181//419
f 1102//420 1100//420 1164//420 1166//420
f 1135//421 1073//421 1137//421 1199//421
f 1120//422 1118//422 1182//422 1184//422
f 1083//423 1085//423 1149//423 1147//423
f 1074//424 1136//424 1200//424 1140//424
f 1101//425 1103//425 1167//425 1165//425
f 1086//426 1084//426 1148//426 1150//426
f 1119//427 1121//427 1185//427 1183//427
f 1104//428 1102//428 1166//428 1168//428
f 1122//429 1120//429 1184//429 1186//429
f 1085//430 1087//430 1151//430 1149//430
f 1103//431 1105//431 1169//431 1167//431
f 1088//432 1086//432 1150//432 1152//432
f 1121//433 1123//433 1187//433 1185//433
f 1106//434 1104//434 1168//434 1170//434
f 1124//435 1122//435 1186//435 1188//435
f 1087//436 1089//436 1153//436 1151//436
f 1105//437 1107//437 1171//437 1169//437
f 1090//438 1088//438 1152//438 1154//438
f 1123//439 1125//439 1189//439 1187//439
f 1108//440 1106//440 1170//440 1172//440
f 1126//441 1124//441 1188//441 1190//441
f 1089//442 1091//442 1155//442 1153//442
o Drawer.4_Cube.005
v -0.860883 1.949139 5.345294
v -0.860883 1.562750 5.345294
v -0.860883 1.949139 2.510019
v -0.860883 1.562750 2.510019
v 0.589854 1.949139 5.233424
v 0.589854 1.562750 5.233424
v 0.589854 1.949139 2.621889
v 0.589854 1.562750 2.621889
v -0.860883 1.949139 5.512525
v -0.860883 1.497452 5.512525
v -0.860883 1.949139 2.365546
v -0.860883 1.497452 2.365546
v -0.909183 1.949139 5.512525
v -0.909183 1.497452 5.512525
v -0.909183 1.949139 2.365546
v -0.909183 1.497452 2.365546
v -0.909183 2.039650 5.512525
v -0.909183 2.039650 2.365546
v -0.860451 2.039650 2.365546
v -0.860451 2.039650 5.512525
v -0.860883 1.949139 5.265832
v -0.860883 1.949139 2.589481
v 0.512480 1.949139 5.160232
v 0.512480 1.949139 2.695081
v -0.860883 1.557981 5.265832
v -0.860883 1.557981 2.589481
v 0.512479 1.557980 5.160232
v 0.512479 1.557980 2.695081
v 0.589854 1.550670 2.621889
v 0.589854 1.550670 5.233424
v -0.860883 1.550671 2.510019
v -0.860883 1.550671 5.345294
v -0.860883 1.545901 5.265832
v 0.512479 1.545900 5.160232
v 0.512479 1.545900 2.695081
v -0.860883 1.545901 2.589481
v -0.953176 1.702242 4.051223
v -0.953176 1.745833 4.051223
v -0.906550 1.702242 3.998895
v -0.906550 1.745833 3.998895
v -0.906550 1.702242 4.051223
v -0.906550 1.745833 4.051223
v -0.991423 1.702242 3.998895
v -0.991423 1.745833 3.998895
v -0.953176 1.702242 3.811557
v -0.953176 1.745833 3.811557
v -0.991423 1.702242 3.863351
v -0.991423 1.745833 3.863351
v -0.899784 1.702242 3.811557
v -0.899784 1.745833 3.811557
v -0.899784 1.745833 3.863351
v -0.899784 1.702242 3.863351
v -0.933127 1.702242 3.998895
v -0.953176 1.702242 3.976394
v -0.973225 1.702242 3.998895
v -0.953176 1.702242 4.021396
v -0.953176 1.745833 3.976394
v -0.933127 1.745833 3.998895
v -0.953176 1.745833 4.021396
v -0.973225 1.745833 3.998895
v -0.991423 1.702242 4.028723
v -0.971374 1.702242 4.051223
v -0.971374 1.745833 4.051223
v -0.991423 1.745833 4.028723
v -0.971374 1.702242 3.811557
v -0.991423 1.702242 3.834058
v -0.991423 1.745833 3.834058
v -0.971374 1.745833 3.811557
v -0.933127 1.745833 3.863351
v -0.953176 1.745833 3.885851
v -0.973225 1.745833 3.863351
v -0.953176 1.745833 3.840850
v -0.953176 1.702242 3.885851
v -0.933127 1.702242 3.863351
v -0.953176 1.702242 3.840850
v -0.973225 1.702242 3.863351
vn 0.0000 -1.0000 0.0000
vn 0.0000 0.0000 -1.0000
vn 0.0000 0.0000 1.0000
vn -1.0000 0.0000 0.0000
vn 0.0000 1.0000 0.0000
vn 1.0000 0.0000 0.0000
vn 0.0046 -0.9982 -0.0600
vn 0.0615 -0.9981 0.0000
vn 0.0046 -0.9982 0.0600
vn 0.0769 -0.0000 -0.9970
vn 0.0769 -0.0000 0.9970
vn -1.0000 0.0048 0.0000
vn -0.0767 0.0000 0.9971
vn -0.0767 0.0000 -0.9971
vn 0.7466 0.0000 -0.6653
vn -0.7466 0.0000 0.6653
vn -0.7466 0.0000 -0.6653
vn 0.7466 0.0000 0.6653
usemtl Black
s off
f 1212//443 1210//443 1214//443 1216//443
f 1211//444 1212//444 1216//444 1215//444
f 1210//445 1209//445 1213//445 1214//445
f 1214//446 1213//446 1215//446 1216//446
f 1215//446 1213//446 1217//446 1218//446
f 1218//447 1217//447 1220//447 1219//447
f 1215//444 1218//444 1219//444 1211//444
f 1209//445 1220//445 1217//445 1213//445
f 1225//448 1233//448 1236//448 1226//448
f 1236//449 1231//449 1229//449 1235//449
f 1235//450 1229//450 1230//450 1234//450
f 1232//451 1233//451 1234//451 1230//451
usemtl White.001
f 1204//448 1202//448 1210//448 1212//448
f 1208//448 1207//448 1205//448 1206//448
f 1204//452 1203//452 1207//452 1208//452
f 1201//453 1202//453 1206//453 1205//453
f 1203//446 1211//446 1212//446 1204//446
f 1202//446 1210//446 1209//446 1201//446
f 1209//454 1220//454 1201//454
f 1203//454 1219//454 1211//454
f 1207//447 1203//447 1222//447 1224//447
f 1201//447 1205//447 1223//447 1221//447
f 1224//455 1222//455 1226//455 1228//455
f 1221//456 1223//456 1227//456 1225//456
f 1220//454 1219//454 1221//454 1201//454
f 1219//454 1203//454 1222//454 1221//454
f 1204//446 1202//446 1225//446 1221//446 1222//446 1226//446
f 1228//446 1227//446 1223//446 1224//446
f 1205//447 1207//447 1224//447 1223//447
f 1208//448 1206//448 1230//448 1229//448
f 1204//452 1208//452 1229//452 1231//452
f 1202//448 1232//448 1233//448 1225//448
f 1233//443 1236//443 1235//443 1234//443
f 1226//448 1236//448 1231//448 1204//448
f 1206//453 1202//453 1232//453 1230//453
usemtl Metal.001
f 1248//446 1267//446 1266//446 1247//446
f 1237//445 1241//445 1242//445 1238//445
f 1238//445 1263//445 1262//445 1237//445
f 1237//443 1262//443 1261//443 1243//443 1255//443 1256//443
f 1254//448 1273//448 1270//448 1257//448
f 1257//447 1270//447 1271//447 1248//447 1244//447 1260//447
f 1274//445 1252//445 1251//445 1269//445
f 1242//447 1240//447 1258//447 1259//447 1238//447
f 1243//443 1247//443 1276//443 1273//443 1254//443 1255//443
f 1247//443 1266//443 1265//443 1245//443 1275//443 1276//443
f 1272//447 1246//447 1268//447 1267//447 1248//447 1271//447
f 1245//444 1265//444 1268//444 1246//444
f 1269//447 1251//447 1250//447 1246//447 1272//447
f 1243//446 1261//446 1264//446 1244//446
f 1244//446 1248//446 1247//446 1243//446
f 1260//447 1244//447 1264//447 1263//447 1238//447 1259//447
f 1239//444 1253//444 1258//444 1240//444
f 1252//448 1249//448 1250//448 1251//448
f 1245//443 1249//443 1252//443 1274//443 1275//443
f 1246//444 1250//444 1249//444 1245//444
f 1253//443 1256//443 1255//443 1254//443
f 1257//447 1260//447 1259//447 1258//447
f 1269//447 1272//447 1271//447 1270//447
f 1273//443 1276//443 1275//443 1274//443
f 1253//457 1254//457 1257//457 1258//457
f 1263//458 1264//458 1261//458 1262//458
f 1265//459 1266//459 1267//459 1268//459
f 1269//460 1270//460 1273//460 1274//460
f 1237//443 1256//443 1253//443 1239//443 1241//443
