# Blender v2.78 (sub 0) OBJ File: 'PhotoFrame - Small.blend'
# www.blender.org
mtllib PhotoFrame - Small.mtl
o Photoframe-Small_Cube.001
v -0.112323 0.322535 -0.234455
v -0.112323 0.322535 0.227013
v -0.002689 0.023694 0.227013
v -0.002689 0.023694 -0.234455
v 0.015411 0.016545 0.245780
v 0.009588 0.003973 0.255577
v -0.103139 0.339694 0.245780
v -0.115712 0.345517 0.255577
v 0.009588 0.003973 -0.263019
v 0.015411 0.016545 -0.253222
v -0.103139 0.339694 -0.253222
v -0.115712 0.345517 -0.263019
v -0.015380 -0.005187 0.255577
v -0.020438 -0.002845 0.251636
v -0.143022 0.331300 0.251636
v -0.140680 0.336357 0.255577
v -0.015380 -0.005187 -0.263019
v -0.020438 -0.002845 -0.259078
v -0.143022 0.331300 -0.259078
v -0.140680 0.336357 -0.263019
v -0.075970 0.148528 0.035288
v -0.069482 0.130842 0.035289
v -0.069482 0.130842 -0.044914
v -0.075970 0.148528 -0.044914
v -0.145362 -0.000199 0.091877
v -0.126538 0.000538 0.091877
v -0.126538 0.000539 -0.101503
v -0.145362 -0.000199 -0.101503
vt 0.0000 0.0000
vt 0.0000 0.0000
vt 0.0000 0.0000
vt 0.0000 0.0000
vt 0.0000 0.0000
vt 0.0000 0.0000
vt 0.0000 0.0000
vt 0.0000 0.0000
vt 0.0000 0.0000
vt 0.0000 0.0000
vt 0.0000 0.0000
vt 0.0000 0.0000
vt 0.0000 0.0000
vt 0.0000 0.0000
vt 0.0000 0.0000
vt 0.0000 0.0000
vt 0.0000 0.0000
vt 0.0000 0.0000
vt 0.0000 0.0000
vt 0.0000 0.0000
vt 0.0000 0.0000
vt 0.0000 0.0000
vt 0.0000 0.0000
vt 0.0000 0.0000
vt 0.0000 0.0000
vt 0.0000 0.0000
vt 0.0000 0.0000
vt 0.0000 0.0000
vt 0.0001 0.0001
vt 0.9999 0.0001
vt 0.9999 0.9851
vt 0.0001 0.9851
vn -0.3444 0.9388 0.0000
vn 0.0000 0.0000 1.0000
vn -0.9388 -0.3444 -0.0000
vn 0.0000 0.0000 -1.0000
vn 0.9074 -0.4203 0.0000
vn 0.6638 0.2435 0.7071
vn 0.4203 0.9074 0.0000
vn 0.6638 0.2435 -0.7071
vn 0.3673 0.9301 0.0000
vn 0.7423 0.2723 0.6122
vn 0.7423 0.2723 -0.6122
vn 0.8817 -0.4719 0.0000
vn -0.6638 -0.2435 -0.7071
vn -0.4203 -0.9074 0.0000
vn -0.9074 0.4203 0.0000
vn -0.6638 -0.2435 0.7071
vn 0.3444 -0.9388 0.0000
vn -0.9062 0.4228 0.0000
vn 0.0391 -0.9992 -0.0000
vn 0.9160 -0.4011 0.0000
vn 0.1951 0.2914 -0.9365
vn 0.1951 0.2914 0.9365
vn 0.9388 0.3444 0.0000
usemtl Black
s off
f 20/1/1 16/2/1 8/3/1 12/4/1
f 13/5/2 6/6/2 8/3/2 16/2/2
f 18/7/3 14/8/3 22/9/3 23/10/3
f 9/11/4 17/12/4 20/1/4 12/4/4
f 10/13/5 5/14/5 6/6/5 9/11/5
f 5/14/6 7/15/6 8/3/6 6/6/6
f 7/15/7 11/16/7 12/4/7 8/3/7
f 11/16/8 10/13/8 9/11/8 12/4/8
f 5/14/9 10/13/9 4/17/9 3/18/9
f 10/13/10 11/16/10 1/19/10 4/17/10
f 7/15/11 5/14/11 3/18/11 2/20/11
f 11/16/12 7/15/12 2/20/12 1/19/12
f 20/1/13 17/12/13 18/7/13 19/21/13
f 14/8/14 18/7/14 17/12/14 13/5/14
f 19/21/15 15/22/15 16/2/15 20/1/15
f 15/22/16 14/8/16 13/5/16 16/2/16
f 9/11/17 6/6/17 13/5/17 17/12/17
f 21/23/18 24/24/18 28/25/18 25/26/18
f 24/24/3 21/23/3 22/9/3 14/8/3 15/22/3 19/21/3 18/7/3 23/10/3
f 27/27/19 26/28/19 25/26/19 28/25/19
f 23/10/20 22/9/20 26/28/20 27/27/20
f 24/24/21 23/10/21 27/27/21 28/25/21
f 22/9/22 21/23/22 25/26/22 26/28/22
usemtl Photo
f 3/29/23 4/30/23 1/31/23 2/32/23
