# Blender v2.78 (sub 0) OBJ File: 'DiningTable.blend'
# www.blender.org
mtllib DiningTable.mtl
o Table_Cube.001
v -0.764780 0.003296 1.214921
v -0.764780 0.003296 -0.794034
v 0.764780 0.003296 1.214921
v 0.764780 0.003296 -0.794034
v -0.590445 0.397940 1.060011
v -0.764780 0.397723 1.214921
v -0.590445 0.397940 -0.639124
v -0.764780 0.397723 -0.794034
v 0.590445 0.397940 1.060011
v 0.764780 0.397723 1.214921
v 0.590445 0.397940 -0.639124
v 0.764780 0.397723 -0.794034
v -0.590445 0.500406 1.060011
v -0.590445 0.500406 -0.639124
v 0.590445 0.500406 -0.639124
v 0.590445 0.500406 1.060011
v -0.761561 0.500406 1.214163
v -0.761561 0.500406 -0.793276
v 0.761561 0.500406 -0.793276
v 0.761561 0.500406 1.214163
v -0.761561 0.891162 1.214163
v -0.588344 0.898193 1.059163
v -0.588344 0.898193 -0.638276
v -0.761561 0.891162 -0.793276
v 0.588344 0.898193 -0.638276
v 0.761561 0.891162 -0.793276
v 0.588344 0.898193 1.059163
v 0.761561 0.891162 1.214163
v -0.588344 1.003159 1.059163
v -0.588344 1.003159 -0.638276
v 0.588344 1.003159 -0.638276
v 0.588344 1.003159 1.059163
v -0.763816 1.003159 1.213918
v -0.763816 1.003159 -0.793031
v 0.763816 1.003159 -0.793031
v 0.763816 1.003159 1.213918
v -0.763816 1.201095 1.213918
v -0.763816 1.201095 -0.793031
v 0.763816 1.201095 -0.793031
v 0.763816 1.201095 1.213918
v -1.732201 1.268748 1.349283
v -1.732201 1.268748 -0.928396
v 1.732201 1.268748 -0.928396
v 1.732201 1.268748 1.349283
v -1.732201 1.398306 1.349283
v -1.732201 1.398306 -0.928396
v 1.732201 1.398306 -0.928396
v 1.732201 1.398306 1.349283
v -0.589933 1.208796 0.985476
v -0.589933 1.208796 -0.564590
v 0.589933 1.208796 -0.564590
v 0.589933 1.208796 0.985476
v -0.669513 1.261047 1.090026
v -0.669513 1.261047 -0.669139
v 0.669513 1.261047 -0.669139
v 0.669513 1.261047 1.090026
v -1.732201 1.268748 -2.888644
v 1.732201 1.268748 -2.888644
v 1.732201 1.268748 3.309530
v -1.732201 1.268748 3.309530
v -1.732201 1.398306 -2.888644
v 1.732201 1.398306 -2.888644
v 1.732201 1.398306 3.309530
v -1.732201 1.398306 3.309530
v -0.509854 0.003296 -0.794034
v -0.509854 0.003296 1.214921
v -0.393630 0.397940 -0.639124
v -0.509854 0.397723 -0.794034
v -0.393630 0.397940 1.060011
v -0.509854 0.397723 1.214921
v -0.393630 0.500406 -0.639124
v -0.393630 0.500406 1.060011
v -0.507707 0.500406 -0.793276
v -0.507707 0.500406 1.214163
v -0.392229 0.898193 -0.638276
v -0.507707 0.891162 -0.793276
v -0.392229 0.898193 1.059163
v -0.507707 0.891162 1.214163
v -0.392229 1.003159 -0.638276
v -0.392229 1.003159 1.059163
v -0.509211 1.003159 -0.793031
v -0.509211 1.003159 1.213918
v -0.509211 1.201095 -0.793031
v -0.509211 1.201095 1.213918
v -1.154801 1.268748 -0.928396
v -1.154801 1.268748 1.349283
v -0.781826 1.398306 -0.928396
v -0.781826 1.398306 1.349283
v -0.393289 1.208796 -0.564590
v -0.393289 1.208796 0.985476
v -0.446342 1.261047 -0.669139
v -0.446342 1.261047 1.090026
v -1.154801 1.268748 -2.888644
v -1.154801 1.268748 3.309530
v -1.154801 1.398306 -2.888644
v -1.154801 1.398306 3.309530
v 0.521736 0.003296 1.214921
v 0.402803 0.397940 -0.639124
v 0.521736 0.397723 1.214921
v 0.402803 0.500406 -0.639124
v 0.519540 0.500406 -0.793276
v 0.401370 0.898193 -0.638276
v 0.519540 0.891162 1.214163
v 0.401370 1.003159 -0.638276
v 0.521078 1.003159 -0.793031
v 0.521078 1.201095 -0.793031
v 1.181713 1.268748 -0.928396
v 0.808738 1.398306 -0.928396
v 0.402455 1.208796 -0.564590
v 0.456744 1.261047 -0.669139
v 1.181713 1.268748 -2.888644
v 1.181713 1.398306 -2.888644
v 0.521736 0.003296 -0.794034
v 0.521736 0.397723 -0.794034
v 0.402803 0.397940 1.060011
v 0.402803 0.500406 1.060011
v 0.519540 0.500406 1.214163
v 0.519540 0.891162 -0.793276
v 0.401370 0.898193 1.059163
v 0.401370 1.003159 1.059163
v 0.521078 1.003159 1.213918
v 0.521078 1.201095 1.213918
v 1.181713 1.268748 1.349283
v 0.808738 1.398306 1.349283
v 0.402455 1.208796 0.985476
v 0.456744 1.261047 1.090026
v 1.181713 1.268748 3.309530
v 1.181713 1.398306 3.309530
v 0.808738 1.373316 1.349283
v -0.781826 1.373316 1.349283
v -0.781826 1.373316 -0.928396
v 0.808738 1.373316 -0.928396
vn 1.0000 0.0000 0.0000
vn -1.0000 0.0000 0.0000
vn 0.0000 0.0000 1.0000
vn 0.0000 0.0000 -1.0000
vn 0.5489 -0.8359 0.0000
vn -0.5489 -0.8359 0.0000
vn 0.0000 -0.8945 0.4471
vn 0.0000 -0.8945 -0.4471
vn 0.0000 1.0000 0.0000
vn 0.0000 -1.0000 0.0000
vn -0.0012 1.0000 0.0000
vn 0.0000 1.0000 -0.0014
vn 0.0012 1.0000 0.0000
vn 0.0000 1.0000 0.0014
vn -0.0406 0.9992 0.0000
vn 0.0000 0.9990 -0.0453
vn 0.0406 0.9992 0.0000
vn 0.0000 0.9990 0.0453
vn 0.0000 -0.9996 -0.0297
vn -0.0442 0.9990 0.0000
vn 0.0000 -0.9996 0.0297
vn 0.0442 0.9990 0.0000
vn 0.0000 0.9994 0.0337
vn 0.0000 0.9994 -0.0337
vn 0.0072 -1.0000 0.0000
vn -0.0072 -1.0000 0.0000
usemtl White
s off
f 9//1 11//1 15//1 16//1
f 7//2 5//2 13//2 14//2
f 115//3 9//3 16//3 116//3
f 67//4 7//4 14//4 71//4
f 23//2 22//2 29//2 30//2
f 119//3 27//3 32//3 120//3
f 75//4 23//4 30//4 79//4
f 27//1 25//1 31//1 32//1
f 52//5 51//5 55//5 56//5
f 50//6 49//6 53//6 54//6
f 125//7 52//7 56//7 126//7
f 89//8 50//8 54//8 91//8
f 109//8 89//8 91//8 110//8
f 49//7 90//7 92//7 53//7
f 88//4 124//4 129//4 130//4
f 102//4 75//4 79//4 104//4
f 22//3 77//3 80//3 29//3
f 98//4 67//4 71//4 100//4
f 5//3 69//3 72//3 13//3
f 11//4 98//4 100//4 15//4
f 25//4 102//4 104//4 31//4
f 51//8 109//8 110//8 55//8
f 90//7 125//7 126//7 92//7
f 77//3 119//3 120//3 80//3
f 69//3 115//3 116//3 72//3
f 132//9 131//9 130//9 129//9
f 87//1 88//1 130//1 131//1
f 108//3 87//3 131//3 132//3
f 124//2 108//2 132//2 129//2
usemtl Black
f 4//1 12//1 10//1 3//1
f 1//2 6//2 8//2 2//2
f 113//10 4//10 3//10 97//10
f 113//4 114//4 12//4 4//4
f 5//11 7//11 8//11 6//11
f 98//12 11//12 12//12 114//12
f 11//13 9//13 10//13 12//13
f 69//14 5//14 6//14 70//14
f 66//3 70//3 6//3 1//3
f 16//10 15//10 19//10 20//10
f 73//4 18//4 24//4 76//4
f 14//10 13//10 17//10 18//10
f 116//10 16//10 20//10 117//10
f 71//10 14//10 18//10 73//10
f 117//3 20//3 28//3 103//3
f 20//1 19//1 26//1 28//1
f 22//15 23//15 24//15 21//15
f 102//16 25//16 26//16 118//16
f 25//17 27//17 28//17 26//17
f 77//18 22//18 21//18 78//18
f 18//2 17//2 21//2 24//2
f 120//10 32//10 36//10 121//10
f 36//1 35//1 39//1 40//1
f 79//10 30//10 34//10 81//10
f 32//10 31//10 35//10 36//10
f 30//10 29//10 33//10 34//10
f 107//19 43//19 55//19 110//19
f 34//2 33//2 37//2 38//2
f 121//3 36//3 40//3 122//3
f 81//4 34//4 38//4 83//4
f 123//10 44//10 59//10 127//10
f 38//20 37//20 49//20 50//20
f 86//21 41//21 53//21 92//21
f 40//22 39//22 51//22 52//22
f 87//9 46//9 45//9 88//9
f 42//2 46//2 61//2 57//2
f 44//1 43//1 47//1 48//1
f 42//2 41//2 45//2 46//2
f 122//23 40//23 52//23 125//23
f 83//24 38//24 50//24 89//24
f 43//25 44//25 56//25 55//25
f 41//26 42//26 54//26 53//26
f 127//3 59//3 63//3 128//3
f 93//4 57//4 61//4 95//4
f 44//1 48//1 63//1 59//1
f 85//10 42//10 57//10 93//10
f 47//1 43//1 58//1 62//1
f 45//2 41//2 60//2 64//2
f 88//9 45//9 64//9 96//9
f 108//9 47//9 62//9 112//9
f 46//9 87//9 95//9 61//9
f 124//9 88//9 96//9 128//9
f 107//10 85//10 93//10 111//10
f 111//4 93//4 95//4 112//4
f 60//3 94//3 96//3 64//3
f 106//24 83//24 89//24 109//24
f 37//23 84//23 90//23 49//23
f 123//21 86//21 92//21 126//21
f 41//10 86//10 94//10 60//10
f 105//4 81//4 83//4 106//4
f 33//3 82//3 84//3 37//3
f 42//19 85//19 91//19 54//19
f 104//10 79//10 81//10 105//10
f 29//10 80//10 82//10 33//10
f 119//18 77//18 78//18 103//18
f 23//16 75//16 76//16 24//16
f 17//3 74//3 78//3 21//3
f 100//10 71//10 73//10 101//10
f 13//10 72//10 74//10 17//10
f 101//4 73//4 76//4 118//4
f 97//3 99//3 70//3 66//3
f 115//14 69//14 70//14 99//14
f 7//12 67//12 68//12 8//12
f 2//4 8//4 68//4 65//4
f 2//10 65//10 66//10 1//10
f 9//14 115//14 99//14 10//14
f 3//3 10//3 99//3 97//3
f 19//4 101//4 118//4 26//4
f 15//10 100//10 101//10 19//10
f 27//18 119//18 103//18 28//18
f 31//10 104//10 105//10 35//10
f 35//4 105//4 106//4 39//4
f 44//21 123//21 126//21 56//21
f 47//9 108//9 124//9 48//9
f 39//24 106//24 109//24 51//24
f 58//4 111//4 112//4 62//4
f 43//10 107//10 111//10 58//10
f 48//9 124//9 128//9 63//9
f 87//9 108//9 112//9 95//9
f 94//3 127//3 128//3 96//3
f 84//23 122//23 125//23 90//23
f 86//10 123//10 127//10 94//10
f 82//3 121//3 122//3 84//3
f 85//19 107//19 110//19 91//19
f 80//10 120//10 121//10 82//10
f 75//16 102//16 118//16 76//16
f 74//3 117//3 103//3 78//3
f 72//10 116//10 117//10 74//10
f 67//12 98//12 114//12 68//12
f 65//4 68//4 114//4 113//4
f 65//10 113//10 97//10 66//10
